[
null,
{"id":1,"list":[{"code":105,"indent":0,"parameters":[3,false]},{"code":405,"indent":0,"parameters":["天地玄黃 宇宙洪荒 日月盈昃 辰宿列張 寒來暑往 秋收冬藏"]},{"code":405,"indent":0,"parameters":["閏餘成歲 律呂調陽 雲騰致雨 露結爲霜 金生麗水 玉出崑岡"]},{"code":405,"indent":0,"parameters":["劍號巨闕 珠稱夜光 果珍李柰 菜重芥薑 海鹹河淡 鱗潛羽翔"]},{"code":405,"indent":0,"parameters":[""]},{"code":405,"indent":0,"parameters":["龍師火帝 鳥官人皇 始制文字 乃服衣裳 推位讓國 有虞陶唐"]},{"code":405,"indent":0,"parameters":["弔民伐罪 周發殷湯 坐朝問道 垂拱平章 愛育黎首 臣伏戎羌"]},{"code":405,"indent":0,"parameters":["遐邇壹體 率賓歸王 鳴鳳在樹 白駒食場 化被草木 賴及萬方"]},{"code":405,"indent":0,"parameters":[""]},{"code":405,"indent":0,"parameters":["蓋此身髮 四大五常 恭惟鞠養 豈敢毀傷 女慕貞絜 男效才良"]},{"code":405,"indent":0,"parameters":["知過必改 得能莫忘 罔談彼短 靡恃己長 信使可覆 器欲難量"]},{"code":405,"indent":0,"parameters":["墨悲絲淬 詩讚羔羊 景行維賢 克念作聖 德建名立 形端表正"]},{"code":405,"indent":0,"parameters":["空谷傳聲 虛堂習聽 禍因惡積 福緣善慶 尺璧非寶 寸陰是競"]},{"code":405,"indent":0,"parameters":["資父事君 曰嚴與敬 孝當竭力 忠則盡命 臨深履薄 夙興溫凊"]},{"code":405,"indent":0,"parameters":["似蘭斯馨 如松之盛 川流不息 淵澄取映 容止若思 言辭安定 "]},{"code":405,"indent":0,"parameters":["篤初誠美 慎終宜令 榮業所基 籍甚無竟 學優登仕 攝職從政"]},{"code":405,"indent":0,"parameters":["存以甘棠 去而益詠 樂殊貴賤 禮別尊卑 上和下睦 夫唱婦隨 "]},{"code":405,"indent":0,"parameters":["外受傅訓 入奉母儀 諸姑伯叔 猶子比兒 孔懷兄弟 同氣連枝"]},{"code":405,"indent":0,"parameters":["交友投分 切磨箴規 仁慈隱惻 造次弗離 節義廉退 顛沛匪虧"]},{"code":405,"indent":0,"parameters":["性靜情逸 心動神疲 守眞志滿 逐物意移 堅持雅操 好爵自縻"]},{"code":405,"indent":0,"parameters":[""]},{"code":405,"indent":0,"parameters":["都邑華夏 東西二京 背邙面洛 浮渭據涇 宮殿盤鬱 樓觀飛驚"]},{"code":405,"indent":0,"parameters":["圖寫禽獸 畫彩仙靈 丙舍傍啟 甲帳對楹 肆筵設席 鼓瑟吹笙"]},{"code":405,"indent":0,"parameters":["升階納陛 弁轉疑星 右通廣內 左達承明 既集墳典 亦聚羣英"]},{"code":405,"indent":0,"parameters":["杜稾鍾隸 漆書壁經 府羅將相 路俠槐卿 戶封八縣 家給千兵"]},{"code":405,"indent":0,"parameters":["高冠陪輦 驅轂振纓 世祿侈富 車駕肥輕 策功茂實 勒碑刻銘"]},{"code":405,"indent":0,"parameters":["磻溪伊尹 佐時阿衡 奄宅曲阜 微旦孰營 桓公匡合 濟弱扶傾"]},{"code":405,"indent":0,"parameters":["綺迴漢惠 說感武丁 俊乂密勿 多士寔寧 晉楚更霸 趙魏困橫"]},{"code":405,"indent":0,"parameters":["假途滅虢 踐土會盟 何遵約法 韓弊煩刑 起翦頗牧 用軍最精"]},{"code":405,"indent":0,"parameters":["宣威沙漠 馳譽丹青 九州禹跡 百郡秦并 嶽宗恆岱 禪主云亭"]},{"code":405,"indent":0,"parameters":["雁門紫塞 雞田赤城 昆池碣石 鉅野洞庭 曠遠緜邈 巖岫杳冥"]},{"code":405,"indent":0,"parameters":[""]},{"code":405,"indent":0,"parameters":["治本於農 務茲稼穡 俶載南畝 我藝黍稷 稅熟貢新 勸賞黜陟"]},{"code":405,"indent":0,"parameters":["孟軻敦素 史魚秉直 庶幾中庸 勞謙謹敕 聆音察理 鑑貌辨色"]},{"code":405,"indent":0,"parameters":["貽厥嘉猷 勉其祗植 省躬譏誡 寵增抗極 殆辱近恥 林皋幸即"]},{"code":405,"indent":0,"parameters":["兩疏見機 解組誰逼 索居閒處 沈默寂寥 求古尋論 散慮逍遙"]},{"code":405,"indent":0,"parameters":["欣奏累遣 慼謝歡招 渠荷的歷 園莽抽條 枇杷晚翠 梧桐早凋"]},{"code":405,"indent":0,"parameters":["陳根委翳 落葉飄颻 游鵾獨運 凌摩絳霄"]},{"code":405,"indent":0,"parameters":[""]},{"code":405,"indent":0,"parameters":["耽讀翫市 寓目囊箱 易輶攸畏 屬耳垣牆 具膳餐飯 適口充腸"]},{"code":405,"indent":0,"parameters":["飽飫烹宰 飢厭糟糠 親戚故舊 老少異糧 妾御績紡 侍巾帷房"]},{"code":405,"indent":0,"parameters":["紈扇圓潔 銀燭煒煌 晝眠夕寐 籃筍象牀 弦歌酒讌 接杯舉觴"]},{"code":405,"indent":0,"parameters":["矯手頓足 悅豫且康 嫡後嗣續 祭祀烝嘗 稽顙再拜 悚懼恐惶"]},{"code":405,"indent":0,"parameters":["箋牒簡要 顧答審詳 骸垢想浴 執熱願涼"]},{"code":405,"indent":0,"parameters":["驢騾犢特 駭躍超驤 誅斬賊盜 捕獲叛亡"]},{"code":405,"indent":0,"parameters":[""]},{"code":405,"indent":0,"parameters":["布射遼丸 嵇琴阮嘯 恬筆倫紙 鈞巧任釣 釋紛利俗 並皆佳妙"]},{"code":405,"indent":0,"parameters":["毛施淑姿 工顰妍笑 年矢每催 曦暉朗耀 琁璣懸斡 晦魄環照"]},{"code":405,"indent":0,"parameters":["指薪脩祜 永綏吉劭 矩步引領 俯仰廊廟 束帶矜莊 徘徊瞻眺"]},{"code":405,"indent":0,"parameters":["孤陋寡聞 愚蒙等誚 謂語助者 焉哉乎也 "]},{"code":0,"indent":0,"parameters":[]}],"name":"= Global and Develop ","switchId":1,"trigger":0},
{"id":2,"list":[{"code":122,"indent":0,"parameters":[19,19,0,3,7,0,0]},{"code":111,"indent":0,"parameters":[1,19,0,3,0]},{"code":117,"indent":1,"parameters":[4]},{"code":0,"indent":1,"parameters":[]},{"code":411,"indent":0,"parameters":[]},{"code":117,"indent":1,"parameters":[3]},{"code":0,"indent":1,"parameters":[]},{"code":412,"indent":0,"parameters":[]},{"code":0,"indent":0,"parameters":[]}],"name":"TestScene.Switch","switchId":1,"trigger":0},
{"id":3,"list":[{"code":122,"indent":0,"parameters":[16,16,0,3,7,0,0]},{"code":122,"indent":0,"parameters":[17,17,0,3,5,-1,0]},{"code":122,"indent":0,"parameters":[18,18,0,3,5,-1,1]},{"code":201,"indent":0,"parameters":[0,3,11,10,0,0]},{"code":0,"indent":0,"parameters":[]}],"name":"TestScene.Enter","switchId":1,"trigger":0},
{"id":4,"list":[{"code":201,"indent":0,"parameters":[1,16,17,18,0,0]},{"code":0,"indent":0,"parameters":[]}],"name":"TestScene.Leave","switchId":1,"trigger":0},
{"id":5,"list":[{"code":122,"indent":0,"parameters":[14,14,0,3,3,4,1]},{"code":129,"indent":0,"parameters":[5,1,false]},{"code":0,"indent":0,"parameters":[]}],"name":"Combat.removeKagura","switchId":1,"trigger":0},
{"id":6,"list":[{"code":129,"indent":0,"parameters":[5,0,false]},{"code":122,"indent":0,"parameters":[15,15,0,3,3,4,1]},{"code":122,"indent":0,"parameters":[15,15,2,1,14]},{"code":315,"indent":0,"parameters":[0,5,0,1,15,false]},{"code":0,"indent":0,"parameters":[]}],"name":"Combat.addKagura","switchId":1,"trigger":0},
{"id":7,"list":[{"code":355,"indent":0,"parameters":["// Disabling Always Dash Temporary."]},{"code":655,"indent":0,"parameters":[""]},{"code":655,"indent":0,"parameters":["if (ConfigManager.alwaysDash) {"]},{"code":655,"indent":0,"parameters":["    ConfigManager.alwaysDash = false  "]},{"code":655,"indent":0,"parameters":["    ConfigManager.save()"]},{"code":655,"indent":0,"parameters":["    $gameSwitches.setValue(19,true);"]},{"code":655,"indent":0,"parameters":["}"]},{"code":655,"indent":0,"parameters":["Window_Options.prototype.addGeneralOptions = function() {"]},{"code":655,"indent":0,"parameters":["    //  this.addCommand(TextManager.alwaysDash, 'alwaysDash');"]},{"code":655,"indent":0,"parameters":["    this.addCommand(TextManager.commandRemember, 'commandRemember');"]},{"code":655,"indent":0,"parameters":["    this.addCommand(TextManager.touchUI, 'touchUI');"]},{"code":655,"indent":0,"parameters":["}"]},{"code":355,"indent":0,"parameters":["Scene_Map.prototype.onMapTouch = function() {"]},{"code":655,"indent":0,"parameters":["    const x = $gameMap.canvasToMapX(TouchInput.x);"]},{"code":655,"indent":0,"parameters":["    const y = $gameMap.canvasToMapY(TouchInput.y);"]},{"code":655,"indent":0,"parameters":["};"]},{"code":0,"indent":0,"parameters":[]}],"name":"Dash.Disable","switchId":1,"trigger":0},
{"id":8,"list":[{"code":355,"indent":0,"parameters":["if ($gameSwitches.getValue(19)) {"]},{"code":655,"indent":0,"parameters":["    ConfigManager.alwaysDash = True  "]},{"code":655,"indent":0,"parameters":["    ConfigManager.save()"]},{"code":655,"indent":0,"parameters":["}"]},{"code":655,"indent":0,"parameters":["Window_Options.prototype.addGeneralOptions = function() {"]},{"code":655,"indent":0,"parameters":["    this.addCommand(TextManager.alwaysDash, 'alwaysDash');"]},{"code":655,"indent":0,"parameters":["    this.addCommand(TextManager.commandRemember, 'commandRemember');"]},{"code":655,"indent":0,"parameters":["    this.addCommand(TextManager.touchUI, 'touchUI');"]},{"code":655,"indent":0,"parameters":["}"]},{"code":355,"indent":0,"parameters":["Scene_Map.prototype.onMapTouch = function() {"]},{"code":655,"indent":0,"parameters":["    const x = $gameMap.canvasToMapX(TouchInput.x);"]},{"code":655,"indent":0,"parameters":["    const y = $gameMap.canvasToMapY(TouchInput.y);"]},{"code":655,"indent":0,"parameters":["    $gameTemp.setDestination(x, y);"]},{"code":655,"indent":0,"parameters":["};"]},{"code":0,"indent":0,"parameters":[]}],"name":"Dash.Enable","switchId":1,"trigger":0},
{"id":9,"list":[{"code":0,"indent":0,"parameters":[]}],"name":"SpinOff.Warning","switchId":1,"trigger":0},
{"id":10,"list":[{"code":0,"indent":0,"parameters":[]}],"name":"","switchId":1,"trigger":0},
{"id":11,"list":[{"code":0,"indent":0,"parameters":[]}],"name":"","switchId":1,"trigger":0},
{"id":12,"list":[{"code":0,"indent":0,"parameters":[]}],"name":"","switchId":1,"trigger":0},
{"id":13,"list":[{"code":0,"indent":0,"parameters":[]}],"name":"","switchId":1,"trigger":0},
{"id":14,"list":[{"code":230,"indent":0,"parameters":[60]},{"code":250,"indent":0,"parameters":[{"name":"Explosion2","volume":35,"pitch":100,"pan":0}]},{"code":230,"indent":0,"parameters":[90]},{"code":250,"indent":0,"parameters":[{"name":"mv_Explosion3","volume":90,"pitch":100,"pan":0}]},{"code":230,"indent":0,"parameters":[90]},{"code":0,"indent":0,"parameters":[]}],"name":"Stomp coming","switchId":1,"trigger":0},
{"id":15,"list":[{"code":230,"indent":0,"parameters":[300]},{"code":250,"indent":0,"parameters":[{"name":"mv_Explosion3","volume":90,"pitch":100,"pan":0}]},{"code":230,"indent":0,"parameters":[300]},{"code":250,"indent":0,"parameters":[{"name":"Explosion2","volume":35,"pitch":100,"pan":0}]},{"code":230,"indent":0,"parameters":[300]},{"code":0,"indent":0,"parameters":[]}],"name":"Stomp leaving","switchId":1,"trigger":0},
{"id":16,"list":[{"code":0,"indent":0,"parameters":[]}],"name":"","switchId":1,"trigger":0},
{"id":17,"list":[{"code":0,"indent":0,"parameters":[]}],"name":"","switchId":1,"trigger":0},
{"id":18,"list":[{"code":0,"indent":0,"parameters":[]}],"name":"","switchId":1,"trigger":0},
{"id":19,"list":[{"code":0,"indent":0,"parameters":[]}],"name":"","switchId":1,"trigger":0},
{"id":20,"list":[{"code":0,"indent":0,"parameters":[]}],"name":"","switchId":1,"trigger":0},
{"id":21,"list":[{"code":0,"indent":0,"parameters":[]}],"name":"= Chapter 1","switchId":1,"trigger":0},
{"id":22,"list":[{"code":0,"indent":0,"parameters":[]}],"name":"Villagers.meet.test","switchId":1,"trigger":0},
{"id":23,"list":[{"code":230,"indent":0,"parameters":[30]},{"code":221,"indent":0,"parameters":[]},{"code":250,"indent":0,"parameters":[{"name":"Explosion2","volume":25,"pitch":50,"pan":0}]},{"code":230,"indent":0,"parameters":[60]},{"code":101,"indent":0,"parameters":["mv_People1",5,0,2,""]},{"code":401,"indent":0,"parameters":["{CommonEvents.Villagers_meet_init.[0]}"]},{"code":230,"indent":0,"parameters":[60]},{"code":250,"indent":0,"parameters":[{"name":"Explosion2","volume":50,"pitch":70,"pan":0}]},{"code":101,"indent":0,"parameters":["mv_People2",1,0,2,""]},{"code":401,"indent":0,"parameters":["{CommonEvents.Villagers_meet_init.[1]}"]},{"code":230,"indent":0,"parameters":[60]},{"code":242,"indent":0,"parameters":[2]},{"code":101,"indent":0,"parameters":["mv_People1",6,0,2,""]},{"code":401,"indent":0,"parameters":["{CommonEvents.Villagers_meet_init.[2]}"]},{"code":231,"indent":0,"parameters":[1,"Chapter01_0401",0,0,0,0,50,50,255,0]},{"code":101,"indent":0,"parameters":["",0,0,2,"{actors[4].name}"]},{"code":401,"indent":0,"parameters":["\\F[rin_astonished]{CommonEvents.Villagers_meet_init.[3]}"]},{"code":230,"indent":0,"parameters":[60]},{"code":222,"indent":0,"parameters":[]},{"code":101,"indent":0,"parameters":["mv_People1",4,0,2,""]},{"code":401,"indent":0,"parameters":["{CommonEvents.Villagers_meet_init.[4]}"]},{"code":0,"indent":0,"parameters":[]}],"name":"Villagers.meet.init","switchId":1,"trigger":0},
{"id":24,"list":[{"code":102,"indent":0,"parameters":[["{CommonEvents.Unconscious_judge.[15]}","{CommonEvents.Unconscious_judge.[16]}"],-1,-1,2,0]},{"code":402,"indent":0,"parameters":[0,"{CommonEvents.Unconscious_judge.[15]}"]},{"code":221,"indent":1,"parameters":[]},{"code":231,"indent":1,"parameters":[1,"Chapter01_0424",0,0,0,0,50,50,255,0]},{"code":230,"indent":1,"parameters":[60]},{"code":222,"indent":1,"parameters":[]},{"code":101,"indent":1,"parameters":["",0,0,0,"{actors[4].name}"]},{"code":401,"indent":1,"parameters":["{CommonEvents.Unconscious_judge.[0]}"]},{"code":101,"indent":1,"parameters":["mv_Kagura_miko",0,0,2,"{actors[5].name}"]},{"code":401,"indent":1,"parameters":["{CommonEvents.Unconscious_judge.[1]}"]},{"code":101,"indent":1,"parameters":["",0,0,0,"{actors[4].name}"]},{"code":401,"indent":1,"parameters":["{CommonEvents.Unconscious_judge.[2]}"]},{"code":121,"indent":1,"parameters":[47,47,0]},{"code":101,"indent":1,"parameters":["",0,0,0,"{actors[4].name}"]},{"code":401,"indent":1,"parameters":["{CommonEvents.Unconscious_judge.[3]}"]},{"code":401,"indent":1,"parameters":["{CommonEvents.Unconscious_judge.[4]}"]},{"code":0,"indent":1,"parameters":[]},{"code":402,"indent":0,"parameters":[1,"{CommonEvents.Unconscious_judge.[16]}"]},{"code":122,"indent":1,"parameters":[6,6,1,0,1]},{"code":221,"indent":1,"parameters":[]},{"code":231,"indent":1,"parameters":[1,"Chapter01_0425",0,0,0,0,50,50,255,0]},{"code":230,"indent":1,"parameters":[60]},{"code":222,"indent":1,"parameters":[]},{"code":101,"indent":1,"parameters":["",0,0,0,"{actors[4].name}"]},{"code":401,"indent":1,"parameters":["{CommonEvents.Unconscious_judge.[5]}"]},{"code":101,"indent":1,"parameters":["mv_Kagura_miko",0,0,2,"{actors[5].name}"]},{"code":401,"indent":1,"parameters":["{CommonEvents.Unconscious_judge.[6]}"]},{"code":101,"indent":1,"parameters":["",0,0,0,"{actors[4].name}"]},{"code":401,"indent":1,"parameters":["{CommonEvents.Unconscious_judge.[7]}"]},{"code":101,"indent":1,"parameters":["",0,0,0,"{actors[4].name}"]},{"code":401,"indent":1,"parameters":["{CommonEvents.Unconscious_judge.[8]}"]},{"code":101,"indent":1,"parameters":["mv_Kagura_miko",6,0,2,"{actors[5].name}"]},{"code":401,"indent":1,"parameters":["{CommonEvents.Unconscious_judge.[9]}"]},{"code":101,"indent":1,"parameters":["mv_Kagura_miko",0,0,2,"{actors[5].name}"]},{"code":401,"indent":1,"parameters":["{CommonEvents.Unconscious_judge.[10]}"]},{"code":121,"indent":1,"parameters":[48,48,0]},{"code":101,"indent":1,"parameters":["",0,0,0,"{actors[4].name}"]},{"code":401,"indent":1,"parameters":["{CommonEvents.Unconscious_judge.[11]}"]},{"code":101,"indent":1,"parameters":["",0,0,0,"{actors[4].name}"]},{"code":401,"indent":1,"parameters":["{CommonEvents.Unconscious_judge.[12]}"]},{"code":101,"indent":1,"parameters":["",0,0,0,"{actors[4].name}"]},{"code":401,"indent":1,"parameters":["{CommonEvents.Unconscious_judge.[13]}"]},{"code":0,"indent":1,"parameters":[]},{"code":404,"indent":0,"parameters":[]},{"code":0,"indent":0,"parameters":[]}],"name":"Unconscious.judge","switchId":1,"trigger":0},
{"id":25,"list":[{"code":230,"indent":0,"parameters":[30]},{"code":221,"indent":0,"parameters":[]},{"code":250,"indent":0,"parameters":[{"name":"Explosion2","volume":25,"pitch":50,"pan":0}]},{"code":230,"indent":0,"parameters":[60]},{"code":101,"indent":0,"parameters":["mv_People1",5,0,2,""]},{"code":401,"indent":0,"parameters":["{CommonEvents.Villagers_Unconscious.[0]}"]},{"code":230,"indent":0,"parameters":[60]},{"code":250,"indent":0,"parameters":[{"name":"Explosion2","volume":50,"pitch":70,"pan":0}]},{"code":101,"indent":0,"parameters":["mv_People2",1,0,2,""]},{"code":401,"indent":0,"parameters":["{CommonEvents.Villagers_Unconscious.[1]}"]},{"code":230,"indent":0,"parameters":[60]},{"code":242,"indent":0,"parameters":[2]},{"code":101,"indent":0,"parameters":["mv_People1",6,0,2,""]},{"code":401,"indent":0,"parameters":["{CommonEvents.Villagers_Unconscious.[2]}"]},{"code":231,"indent":0,"parameters":[1,"Chapter01_0421",0,0,0,0,50,50,255,0]},{"code":230,"indent":0,"parameters":[60]},{"code":222,"indent":0,"parameters":[]},{"code":241,"indent":0,"parameters":[{"name":"mv_03_Deserted_Mansion","volume":70,"pitch":100,"pan":0}]},{"code":101,"indent":0,"parameters":["",0,0,2,""]},{"code":401,"indent":0,"parameters":["{CommonEvents.Villagers_Unconscious.[3]}"]},{"code":230,"indent":0,"parameters":[60]},{"code":232,"indent":0,"parameters":[1,0,0,0,0,-720,50,50,255,0,600,false,0]},{"code":230,"indent":0,"parameters":[60]},{"code":101,"indent":0,"parameters":["",0,0,2,""]},{"code":401,"indent":0,"parameters":["{CommonEvents.Villagers_Unconscious.[4]}"]},{"code":230,"indent":0,"parameters":[30]},{"code":101,"indent":0,"parameters":["",0,0,2,""]},{"code":401,"indent":0,"parameters":["{CommonEvents.Villagers_Unconscious.[5]}"]},{"code":230,"indent":0,"parameters":[30]},{"code":101,"indent":0,"parameters":["",0,0,2,""]},{"code":401,"indent":0,"parameters":["{CommonEvents.Villagers_Unconscious.[6]}"]},{"code":221,"indent":0,"parameters":[]},{"code":250,"indent":0,"parameters":[{"name":"Damage5","volume":90,"pitch":100,"pan":0}]},{"code":101,"indent":0,"parameters":["",0,0,2,""]},{"code":401,"indent":0,"parameters":["{CommonEvents.Villagers_Unconscious.[7]}"]},{"code":250,"indent":0,"parameters":[{"name":"Bite","volume":90,"pitch":100,"pan":0}]},{"code":230,"indent":0,"parameters":[30]},{"code":250,"indent":0,"parameters":[{"name":"Bite","volume":90,"pitch":100,"pan":0}]},{"code":101,"indent":0,"parameters":["",0,0,2,""]},{"code":401,"indent":0,"parameters":["{CommonEvents.Villagers_Unconscious.[8]}"]},{"code":230,"indent":0,"parameters":[30]},{"code":101,"indent":0,"parameters":["",0,0,2,""]},{"code":401,"indent":0,"parameters":["{CommonEvents.Villagers_Unconscious.[9]}"]},{"code":230,"indent":0,"parameters":[120]},{"code":242,"indent":0,"parameters":[3]},{"code":250,"indent":0,"parameters":[{"name":"Explosion2","volume":100,"pitch":50,"pan":0}]},{"code":230,"indent":0,"parameters":[120]},{"code":250,"indent":0,"parameters":[{"name":"Explosion2","volume":55,"pitch":100,"pan":0}]},{"code":101,"indent":0,"parameters":["",0,0,2,"{actors[4].name}"]},{"code":401,"indent":0,"parameters":["\\F[rin_thinking]{CommonEvents.Villagers_Unconscious.[10]}"]},{"code":231,"indent":0,"parameters":[1,"Chapter01_0422",0,0,0,0,50,50,255,0]},{"code":230,"indent":0,"parameters":[60]},{"code":222,"indent":0,"parameters":[]},{"code":101,"indent":0,"parameters":["",0,0,0,"{actors[4].name}"]},{"code":401,"indent":0,"parameters":["{CommonEvents.Villagers_Unconscious.[11]}"]},{"code":221,"indent":0,"parameters":[]},{"code":231,"indent":0,"parameters":[1,"Chapter01_0423",0,0,0,0,50,50,255,0]},{"code":230,"indent":0,"parameters":[60]},{"code":222,"indent":0,"parameters":[]},{"code":241,"indent":0,"parameters":[{"name":"mv_Dungeon1","volume":90,"pitch":100,"pan":0}]},{"code":101,"indent":0,"parameters":["",0,0,0,"{actors[4].name}"]},{"code":401,"indent":0,"parameters":["{CommonEvents.Villagers_Unconscious.[12]}"]},{"code":101,"indent":0,"parameters":["",0,0,0,"{actors[4].name}"]},{"code":401,"indent":0,"parameters":["{CommonEvents.Villagers_Unconscious.[13]}"]},{"code":101,"indent":0,"parameters":["mv_Kagura_miko",1,0,2,"{actors[5].name}"]},{"code":401,"indent":0,"parameters":["{CommonEvents.Villagers_Unconscious.[14]}"]},{"code":230,"indent":0,"parameters":[60]},{"code":117,"indent":0,"parameters":[24]},{"code":230,"indent":0,"parameters":[60]},{"code":221,"indent":0,"parameters":[]},{"code":235,"indent":0,"parameters":[1]},{"code":235,"indent":0,"parameters":[2]},{"code":0,"indent":0,"parameters":[]}],"name":"Villagers.Unconscious","switchId":1,"trigger":0},
{"id":26,"list":[{"code":241,"indent":0,"parameters":[{"name":"mv_Town3 (2)","volume":90,"pitch":100,"pan":0}]},{"code":101,"indent":0,"parameters":["",0,0,2,"{actors[4].name}"]},{"code":401,"indent":0,"parameters":["{CommonEvents.Villagers_talk.[0]}"]},{"code":101,"indent":0,"parameters":["mv_People4",1,0,2,""]},{"code":401,"indent":0,"parameters":["{CommonEvents.Villagers_talk.[1]}"]},{"code":101,"indent":0,"parameters":["mv_People1",5,0,2,""]},{"code":401,"indent":0,"parameters":["{CommonEvents.Villagers_talk.[2]}"]},{"code":401,"indent":0,"parameters":["{CommonEvents.Villagers_talk.[3]}"]},{"code":230,"indent":0,"parameters":[60]},{"code":101,"indent":0,"parameters":["mv_People2",5,0,2,""]},{"code":401,"indent":0,"parameters":["{CommonEvents.Villagers_talk.[4]}"]},{"code":231,"indent":0,"parameters":[2,"Chapter01_0402",0,0,0,0,50,50,255,0]},{"code":101,"indent":0,"parameters":["",0,0,0,"{actors[4].name}"]},{"code":401,"indent":0,"parameters":["{CommonEvents.Villagers_talk.[5]}"]},{"code":101,"indent":0,"parameters":["mv_People1",2,0,2,""]},{"code":401,"indent":0,"parameters":["{CommonEvents.Villagers_talk.[6]}"]},{"code":101,"indent":0,"parameters":["",0,0,0,"{actors[4].name}"]},{"code":401,"indent":0,"parameters":["{CommonEvents.Villagers_talk.[7]}"]},{"code":230,"indent":0,"parameters":[60]},{"code":221,"indent":0,"parameters":[]},{"code":235,"indent":0,"parameters":[2]},{"code":231,"indent":0,"parameters":[1,"Chapter01_0403",0,0,0,0,50,50,255,0]},{"code":250,"indent":0,"parameters":[{"name":"Earth3","volume":90,"pitch":100,"pan":0}]},{"code":230,"indent":0,"parameters":[60]},{"code":101,"indent":0,"parameters":["mv_People4",3,0,2,""]},{"code":401,"indent":0,"parameters":["{CommonEvents.Villagers_talk.[8]}"]},{"code":101,"indent":0,"parameters":["mv_People4",2,0,2,""]},{"code":401,"indent":0,"parameters":["{CommonEvents.Villagers_talk.[9]}"]},{"code":230,"indent":0,"parameters":[60]},{"code":222,"indent":0,"parameters":[]},{"code":101,"indent":0,"parameters":["",0,0,0,"{actors[4].name}"]},{"code":401,"indent":0,"parameters":["{CommonEvents.Villagers_talk.[10]}"]},{"code":401,"indent":0,"parameters":["{CommonEvents.Villagers_talk.[11]}"]},{"code":101,"indent":0,"parameters":["mv_Kagura_miko",6,0,2,"{actors[5].name}"]},{"code":401,"indent":0,"parameters":["{CommonEvents.Villagers_talk.[12]}"]},{"code":230,"indent":0,"parameters":[60]},{"code":231,"indent":0,"parameters":[2,"Chapter01_0404",0,0,0,0,50,50,255,0]},{"code":101,"indent":0,"parameters":["",0,0,0,"{actors[4].name}"]},{"code":401,"indent":0,"parameters":["{CommonEvents.Villagers_talk.[13]}"]},{"code":101,"indent":0,"parameters":["",0,0,0,"{actors[4].name}"]},{"code":401,"indent":0,"parameters":["{CommonEvents.Villagers_talk.[14]}"]},{"code":101,"indent":0,"parameters":["mv_People4",3,0,2,""]},{"code":401,"indent":0,"parameters":["{CommonEvents.Villagers_talk.[15]}"]},{"code":101,"indent":0,"parameters":["mv_People1",5,0,2,""]},{"code":401,"indent":0,"parameters":["{CommonEvents.Villagers_talk.[16]}"]},{"code":230,"indent":0,"parameters":[60]},{"code":101,"indent":0,"parameters":["mv_People4",6,0,2,""]},{"code":401,"indent":0,"parameters":["{CommonEvents.Villagers_talk.[17]}"]},{"code":101,"indent":0,"parameters":["",0,0,0,"{actors[4].name}"]},{"code":401,"indent":0,"parameters":["{CommonEvents.Villagers_talk.[18]}"]},{"code":101,"indent":0,"parameters":["",0,0,0,"{actors[4].name}"]},{"code":401,"indent":0,"parameters":["{CommonEvents.Villagers_talk.[19]}"]},{"code":101,"indent":0,"parameters":["",0,0,0,"{actors[4].name}"]},{"code":401,"indent":0,"parameters":["{CommonEvents.Villagers_talk.[20]}"]},{"code":235,"indent":0,"parameters":[2]},{"code":230,"indent":0,"parameters":[60]},{"code":101,"indent":0,"parameters":["",0,0,0,"{actors[4].name}"]},{"code":401,"indent":0,"parameters":["{CommonEvents.Villagers_talk.[21]}"]},{"code":101,"indent":0,"parameters":["",0,0,0,"{actors[4].name}"]},{"code":401,"indent":0,"parameters":["{CommonEvents.Villagers_talk.[22]}"]},{"code":101,"indent":0,"parameters":["mv_People4",1,0,2,""]},{"code":401,"indent":0,"parameters":["{CommonEvents.Villagers_talk.[23]}"]},{"code":101,"indent":0,"parameters":["",0,0,0,"{actors[4].name}"]},{"code":401,"indent":0,"parameters":["{CommonEvents.Villagers_talk.[24]}"]},{"code":231,"indent":0,"parameters":[2,"Chapter01_0404",0,0,0,0,50,50,255,0]},{"code":101,"indent":0,"parameters":["",0,0,0,"{actors[4].name}"]},{"code":401,"indent":0,"parameters":["{CommonEvents.Villagers_talk.[25]}"]},{"code":101,"indent":0,"parameters":["mv_People2",2,0,2,""]},{"code":401,"indent":0,"parameters":["{CommonEvents.Villagers_talk.[26]}"]},{"code":230,"indent":0,"parameters":[60]},{"code":101,"indent":0,"parameters":["",0,0,0,"{actors[4].name}"]},{"code":401,"indent":0,"parameters":["{CommonEvents.Villagers_talk.[27]}"]},{"code":101,"indent":0,"parameters":["mv_People2",1,0,2,""]},{"code":401,"indent":0,"parameters":["{CommonEvents.Villagers_talk.[28]}"]},{"code":101,"indent":0,"parameters":["",0,0,0,"{actors[4].name}"]},{"code":401,"indent":0,"parameters":["{CommonEvents.Villagers_talk.[29]}"]},{"code":101,"indent":0,"parameters":["mv_People2",1,0,2,""]},{"code":401,"indent":0,"parameters":["{CommonEvents.Villagers_talk.[30]}"]},{"code":101,"indent":0,"parameters":["mv_People2",1,0,2,""]},{"code":401,"indent":0,"parameters":["{CommonEvents.Villagers_talk.[31]}"]},{"code":101,"indent":0,"parameters":["",0,0,0,"{actors[4].name}"]},{"code":401,"indent":0,"parameters":["{CommonEvents.Villagers_talk.[32]}"]},{"code":221,"indent":0,"parameters":[]},{"code":235,"indent":0,"parameters":[2]},{"code":231,"indent":0,"parameters":[1,"Chapter01_0405",0,0,0,0,50,50,255,0]},{"code":101,"indent":0,"parameters":["mv_People4",3,0,2,""]},{"code":401,"indent":0,"parameters":["{CommonEvents.Villagers_talk.[33]}"]},{"code":101,"indent":0,"parameters":["mv_People4",1,0,2,""]},{"code":401,"indent":0,"parameters":["{CommonEvents.Villagers_talk.[34]}"]},{"code":230,"indent":0,"parameters":[60]},{"code":222,"indent":0,"parameters":[]},{"code":101,"indent":0,"parameters":["mv_Kagura_miko",6,0,2,"{actors[5].name}"]},{"code":401,"indent":0,"parameters":["{CommonEvents.Villagers_talk.[35]}"]},{"code":101,"indent":0,"parameters":["mv_People2",5,0,2,""]},{"code":401,"indent":0,"parameters":["{CommonEvents.Villagers_talk.[36]}"]},{"code":101,"indent":0,"parameters":["mv_Kagura_miko",2,0,2,"{actors[5].name}"]},{"code":401,"indent":0,"parameters":["{CommonEvents.Villagers_talk.[37]}"]},{"code":231,"indent":0,"parameters":[2,"Chapter01_0406",0,0,0,0,50,50,255,0]},{"code":101,"indent":0,"parameters":["mv_People4",1,0,2,""]},{"code":401,"indent":0,"parameters":["{CommonEvents.Villagers_talk.[38]}"]},{"code":101,"indent":0,"parameters":["mv_Kagura_miko",6,0,2,""]},{"code":401,"indent":0,"parameters":["{CommonEvents.Villagers_talk.[39]}"]},{"code":230,"indent":0,"parameters":[60]},{"code":101,"indent":0,"parameters":["",0,0,0,"{actors[4].name}"]},{"code":401,"indent":0,"parameters":["{CommonEvents.Villagers_talk.[40]}"]},{"code":221,"indent":0,"parameters":[]},{"code":242,"indent":0,"parameters":[4]},{"code":230,"indent":0,"parameters":[60]},{"code":101,"indent":0,"parameters":["",0,0,2,"{actors[4].name}"]},{"code":401,"indent":0,"parameters":["\\F[rin_smiling]{CommonEvents.Villagers_talk.[41]}"]},{"code":101,"indent":0,"parameters":["",0,0,2,"{actors[4].name}"]},{"code":401,"indent":0,"parameters":["\\F[rin_smiling]{CommonEvents.Villagers_talk.[42]}"]},{"code":235,"indent":0,"parameters":[1]},{"code":235,"indent":0,"parameters":[2]},{"code":122,"indent":0,"parameters":[5,5,1,0,1]},{"code":0,"indent":0,"parameters":[]}],"name":"Villagers.talk","switchId":1,"trigger":0},
{"id":27,"list":[{"code":241,"indent":0,"parameters":[{"name":"MVre_Dungeon3","volume":90,"pitch":100,"pan":0}]},{"code":101,"indent":0,"parameters":["",0,0,0,"{actors[4].name}"]},{"code":401,"indent":0,"parameters":["{CommonEvents.Villagers_kill.[0]}"]},{"code":101,"indent":0,"parameters":["",0,0,2,""]},{"code":401,"indent":0,"parameters":["{CommonEvents.Villagers_kill.[1]}"]},{"code":101,"indent":0,"parameters":["",0,0,2,""]},{"code":401,"indent":0,"parameters":["{CommonEvents.Villagers_kill.[2]}"]},{"code":101,"indent":0,"parameters":["",0,0,0,"{actors[4].name}"]},{"code":401,"indent":0,"parameters":["{CommonEvents.Villagers_kill.[3]}"]},{"code":230,"indent":0,"parameters":[60]},{"code":231,"indent":0,"parameters":[2,"Chapter01_0412",0,0,0,0,50,50,255,0]},{"code":230,"indent":0,"parameters":[60]},{"code":101,"indent":0,"parameters":["",0,0,0,"{actors[4].name}"]},{"code":401,"indent":0,"parameters":["{CommonEvents.Villagers_kill.[4]}"]},{"code":101,"indent":0,"parameters":["",0,0,0,"{actors[4].name}"]},{"code":401,"indent":0,"parameters":["{CommonEvents.Villagers_kill.[5]}"]},{"code":101,"indent":0,"parameters":["",0,0,0,"{actors[4].name}"]},{"code":401,"indent":0,"parameters":["{CommonEvents.Villagers_kill.[6]}"]},{"code":230,"indent":0,"parameters":[60]},{"code":221,"indent":0,"parameters":[]},{"code":235,"indent":0,"parameters":[2]},{"code":250,"indent":0,"parameters":[{"name":"Earth5","volume":100,"pitch":100,"pan":0}]},{"code":231,"indent":0,"parameters":[1,"Chapter01_0413",0,0,0,0,50,50,255,0]},{"code":230,"indent":0,"parameters":[60]},{"code":222,"indent":0,"parameters":[]},{"code":101,"indent":0,"parameters":["",0,0,0,"{actors[4].name}"]},{"code":401,"indent":0,"parameters":["{CommonEvents.Villagers_kill.[7]}"]},{"code":101,"indent":0,"parameters":["",0,0,2,""]},{"code":401,"indent":0,"parameters":["{CommonEvents.Villagers_kill.[8]}"]},{"code":230,"indent":0,"parameters":[60]},{"code":250,"indent":0,"parameters":[{"name":"Explosion4","volume":90,"pitch":100,"pan":0}]},{"code":231,"indent":0,"parameters":[2,"Chapter01_0414",0,0,0,0,50,50,255,0]},{"code":101,"indent":0,"parameters":["",0,0,0,"{actors[4].name}"]},{"code":401,"indent":0,"parameters":["{CommonEvents.Villagers_kill.[9]}"]},{"code":221,"indent":0,"parameters":[]},{"code":235,"indent":0,"parameters":[2]},{"code":250,"indent":0,"parameters":[{"name":"Earth5","volume":100,"pitch":100,"pan":0}]},{"code":231,"indent":0,"parameters":[1,"Chapter01_0415",0,0,0,0,50,50,255,0]},{"code":230,"indent":0,"parameters":[60]},{"code":222,"indent":0,"parameters":[]},{"code":101,"indent":0,"parameters":["",0,0,0,"{actors[4].name}"]},{"code":401,"indent":0,"parameters":["{CommonEvents.Villagers_kill.[10]}"]},{"code":101,"indent":0,"parameters":["mv_Kagura_miko",6,0,2,"{actors[5].name}"]},{"code":401,"indent":0,"parameters":["{CommonEvents.Villagers_kill.[11]}"]},{"code":221,"indent":0,"parameters":[]},{"code":242,"indent":0,"parameters":[4]},{"code":122,"indent":0,"parameters":[6,6,1,0,1]},{"code":230,"indent":0,"parameters":[60]},{"code":235,"indent":0,"parameters":[1]},{"code":235,"indent":0,"parameters":[2]},{"code":0,"indent":0,"parameters":[]}],"name":"Villagers.kill","switchId":1,"trigger":0},
{"id":28,"list":[{"code":243,"indent":0,"parameters":[]},{"code":111,"indent":0,"parameters":[12,"$gamePlayer.isDashing();"]},{"code":108,"indent":1,"parameters":["Unconscious crushed"]},{"code":205,"indent":1,"parameters":[-1,{"list":[{"code":17,"indent":null},{"code":0}],"repeat":false,"skippable":false,"wait":true}]},{"code":505,"indent":1,"parameters":[{"code":17,"indent":null}]},{"code":117,"indent":1,"parameters":[25]},{"code":121,"indent":1,"parameters":[46,46,0]},{"code":0,"indent":1,"parameters":[]},{"code":411,"indent":0,"parameters":[]},{"code":117,"indent":1,"parameters":[23]},{"code":101,"indent":1,"parameters":["",0,0,2,"{actors[4].name}"]},{"code":401,"indent":1,"parameters":["\\F[rin_thinking]{CommonEvents.Villagers_meet_1.[0]}"]},{"code":102,"indent":1,"parameters":[["{CommonEvents.Villagers_meet_1.[2]}","{CommonEvents.Villagers_meet_1.[3]}"],1,0,2,0]},{"code":402,"indent":1,"parameters":[0,"{CommonEvents.Villagers_meet_1.[2]}"]},{"code":230,"indent":2,"parameters":[60]},{"code":117,"indent":2,"parameters":[26]},{"code":121,"indent":2,"parameters":[45,45,0]},{"code":0,"indent":2,"parameters":[]},{"code":402,"indent":1,"parameters":[1,"{CommonEvents.Villagers_meet_1.[3]}"]},{"code":230,"indent":2,"parameters":[60]},{"code":117,"indent":2,"parameters":[27]},{"code":121,"indent":2,"parameters":[44,44,0]},{"code":0,"indent":2,"parameters":[]},{"code":404,"indent":1,"parameters":[]},{"code":0,"indent":1,"parameters":[]},{"code":412,"indent":0,"parameters":[]},{"code":230,"indent":0,"parameters":[180]},{"code":244,"indent":0,"parameters":[]},{"code":222,"indent":0,"parameters":[]},{"code":0,"indent":0,"parameters":[]}],"name":"Villagers.meet.1","switchId":1,"trigger":0},
{"id":29,"list":[{"code":221,"indent":0,"parameters":[]},{"code":211,"indent":0,"parameters":[0]},{"code":243,"indent":0,"parameters":[]},{"code":111,"indent":0,"parameters":[12,"$gamePlayer.isDashing();"]},{"code":101,"indent":1,"parameters":["",0,0,2,""]},{"code":401,"indent":1,"parameters":["{CommonEvents.Armies1_init.[0]}"]},{"code":111,"indent":1,"parameters":[0,46,0]},{"code":111,"indent":2,"parameters":[0,48,0]},{"code":121,"indent":3,"parameters":[53,53,0]},{"code":0,"indent":3,"parameters":[]},{"code":412,"indent":2,"parameters":[]},{"code":0,"indent":2,"parameters":[]},{"code":411,"indent":1,"parameters":[]},{"code":121,"indent":2,"parameters":[53,53,0]},{"code":0,"indent":2,"parameters":[]},{"code":412,"indent":1,"parameters":[]},{"code":0,"indent":1,"parameters":[]},{"code":412,"indent":0,"parameters":[]},{"code":201,"indent":0,"parameters":[0,21,31,8,4,2]},{"code":108,"indent":0,"parameters":["-> Map021"]},{"code":0,"indent":0,"parameters":[]}],"name":"Armies1.init","switchId":1,"trigger":0},
{"id":30,"list":[{"code":108,"indent":0,"parameters":["Processing Unconscious Kills"]},{"code":250,"indent":0,"parameters":[{"name":"Explosion2","volume":100,"pitch":100,"pan":0}]},{"code":211,"indent":0,"parameters":[1]},{"code":231,"indent":0,"parameters":[1,"Chapter01_0501",0,0,0,0,50,50,255,0]},{"code":230,"indent":0,"parameters":[60]},{"code":222,"indent":0,"parameters":[]},{"code":230,"indent":0,"parameters":[60]},{"code":111,"indent":0,"parameters":[0,45,0]},{"code":101,"indent":1,"parameters":["",0,0,0,"{actors[4].name}"]},{"code":401,"indent":1,"parameters":["{CommonEvents.Armies1_Decision.[0]}"]},{"code":0,"indent":1,"parameters":[]},{"code":412,"indent":0,"parameters":[]},{"code":111,"indent":0,"parameters":[0,44,0]},{"code":101,"indent":1,"parameters":["",0,0,0,"{actors[4].name}"]},{"code":401,"indent":1,"parameters":["{CommonEvents.Armies1_Decision.[1]}"]},{"code":0,"indent":1,"parameters":[]},{"code":412,"indent":0,"parameters":[]},{"code":101,"indent":0,"parameters":["",0,0,0,"{actors[4].name}"]},{"code":401,"indent":0,"parameters":["{CommonEvents.Armies1_Decision.[2]}"]},{"code":102,"indent":0,"parameters":[["{CommonEvents.Armies1_Decision.[15]}","{CommonEvents.Armies1_Decision.[16]}"],-2,0,2,0]},{"code":402,"indent":0,"parameters":[0,"{CommonEvents.Armies1_Decision.[15]}"]},{"code":101,"indent":1,"parameters":["",0,0,2,"{actors[4].name}"]},{"code":401,"indent":1,"parameters":["{CommonEvents.Armies1_Decision.[3]}"]},{"code":101,"indent":1,"parameters":["",0,0,2,"{actors[4].name}"]},{"code":401,"indent":1,"parameters":["{CommonEvents.Armies1_Decision.[4]}"]},{"code":121,"indent":1,"parameters":[54,54,0]},{"code":0,"indent":1,"parameters":[]},{"code":402,"indent":0,"parameters":[1,"{CommonEvents.Armies1_Decision.[16]}"]},{"code":101,"indent":1,"parameters":["",0,0,2,"{actors[4].name}"]},{"code":401,"indent":1,"parameters":["{CommonEvents.Armies1_Decision.[5]}"]},{"code":101,"indent":1,"parameters":["",0,0,2,"{actors[4].name}"]},{"code":401,"indent":1,"parameters":["{CommonEvents.Armies1_Decision.[6]}"]},{"code":121,"indent":1,"parameters":[55,55,0]},{"code":0,"indent":1,"parameters":[]},{"code":403,"indent":0,"parameters":[6,null]},{"code":121,"indent":1,"parameters":[53,53,0]},{"code":230,"indent":1,"parameters":[60]},{"code":221,"indent":1,"parameters":[]},{"code":235,"indent":1,"parameters":[1]},{"code":235,"indent":1,"parameters":[2]},{"code":0,"indent":1,"parameters":[]},{"code":404,"indent":0,"parameters":[]},{"code":111,"indent":0,"parameters":[0,53,0]},{"code":117,"indent":1,"parameters":[31]},{"code":0,"indent":1,"parameters":[]},{"code":411,"indent":0,"parameters":[]},{"code":221,"indent":1,"parameters":[]},{"code":121,"indent":1,"parameters":[50,50,0]},{"code":211,"indent":1,"parameters":[1]},{"code":235,"indent":1,"parameters":[1]},{"code":230,"indent":1,"parameters":[60]},{"code":222,"indent":1,"parameters":[]},{"code":205,"indent":1,"parameters":[-1,{"list":[{"code":29,"parameters":[2],"indent":null},{"code":2,"indent":null},{"code":15,"parameters":[30],"indent":null},{"code":2,"indent":null},{"code":15,"parameters":[30],"indent":0},{"code":2,"indent":null},{"code":15,"parameters":[30],"indent":0},{"code":2,"indent":null},{"code":0}],"repeat":false,"skippable":false,"wait":true}]},{"code":505,"indent":1,"parameters":[{"code":29,"parameters":[2],"indent":null}]},{"code":505,"indent":1,"parameters":[{"code":2,"indent":null}]},{"code":505,"indent":1,"parameters":[{"code":15,"parameters":[30],"indent":null}]},{"code":505,"indent":1,"parameters":[{"code":2,"indent":null}]},{"code":505,"indent":1,"parameters":[{"code":15,"parameters":[30],"indent":0}]},{"code":505,"indent":1,"parameters":[{"code":2,"indent":null}]},{"code":505,"indent":1,"parameters":[{"code":15,"parameters":[30],"indent":0}]},{"code":505,"indent":1,"parameters":[{"code":2,"indent":null}]},{"code":101,"indent":1,"parameters":["mv_People3",7,0,2,""]},{"code":401,"indent":1,"parameters":["{CommonEvents.Armies1_Decision.[7]}"]},{"code":230,"indent":1,"parameters":[60]},{"code":101,"indent":1,"parameters":["mv_People3",4,0,2,""]},{"code":401,"indent":1,"parameters":["{CommonEvents.Armies1_Decision.[8]}"]},{"code":111,"indent":1,"parameters":[0,54,0]},{"code":101,"indent":2,"parameters":["mv_People3",4,0,2,""]},{"code":401,"indent":2,"parameters":["{CommonEvents.Armies1_Decision.[9]}"]},{"code":101,"indent":2,"parameters":["mv_People3",4,0,2,""]},{"code":401,"indent":2,"parameters":["{CommonEvents.Armies1_Decision.[10]}"]},{"code":401,"indent":2,"parameters":["{CommonEvents.Armies1_Decision.[11]}"]},{"code":0,"indent":2,"parameters":[]},{"code":412,"indent":1,"parameters":[]},{"code":111,"indent":1,"parameters":[0,55,0]},{"code":101,"indent":2,"parameters":["mv_People3",4,0,2,""]},{"code":401,"indent":2,"parameters":["{CommonEvents.Armies1_Decision.[12]}"]},{"code":101,"indent":2,"parameters":["mv_People3",4,0,2,""]},{"code":401,"indent":2,"parameters":["{CommonEvents.Armies1_Decision.[13]}"]},{"code":0,"indent":2,"parameters":[]},{"code":412,"indent":1,"parameters":[]},{"code":0,"indent":1,"parameters":[]},{"code":412,"indent":0,"parameters":[]},{"code":0,"indent":0,"parameters":[]}],"name":"Armies1.Decision","switchId":1,"trigger":0},
{"id":31,"list":[{"code":230,"indent":0,"parameters":[60]},{"code":101,"indent":0,"parameters":["mv_People3",7,0,2,""]},{"code":401,"indent":0,"parameters":["{CommonEvents.Armies1_Unconsicous.[0]}"]},{"code":250,"indent":0,"parameters":[{"name":"mv_bonesnap","volume":90,"pitch":100,"pan":0}]},{"code":230,"indent":0,"parameters":[30]},{"code":101,"indent":0,"parameters":["mv_People3",7,0,2,""]},{"code":401,"indent":0,"parameters":["{CommonEvents.Armies1_Unconsicous.[1]}"]},{"code":250,"indent":0,"parameters":[{"name":"Explosion2","volume":90,"pitch":100,"pan":0}]},{"code":231,"indent":0,"parameters":[1,"Chapter01_0531",0,0,0,0,50,50,255,0]},{"code":230,"indent":0,"parameters":[60]},{"code":222,"indent":0,"parameters":[]},{"code":230,"indent":0,"parameters":[60]},{"code":101,"indent":0,"parameters":["",0,0,0,"{actors[4].name}"]},{"code":401,"indent":0,"parameters":["{CommonEvents.Armies1_Unconsicous.[2]}"]},{"code":101,"indent":0,"parameters":["",0,0,0,"{actors[4].name}"]},{"code":401,"indent":0,"parameters":["{CommonEvents.Armies1_Unconsicous.[3]}"]},{"code":230,"indent":0,"parameters":[30]},{"code":221,"indent":0,"parameters":[]},{"code":231,"indent":0,"parameters":[1,"Chapter01_0532",0,0,0,0,50,50,255,0]},{"code":230,"indent":0,"parameters":[60]},{"code":222,"indent":0,"parameters":[]},{"code":230,"indent":0,"parameters":[60]},{"code":101,"indent":0,"parameters":["",0,0,2,"{actors[4].name}"]},{"code":401,"indent":0,"parameters":["{CommonEvents.Armies1_Unconsicous.[4]}"]},{"code":101,"indent":0,"parameters":["",0,0,2,"{actors[4].name}"]},{"code":401,"indent":0,"parameters":["{CommonEvents.Armies1_Unconsicous.[5]}"]},{"code":101,"indent":0,"parameters":["",0,0,2,"{actors[4].name}"]},{"code":401,"indent":0,"parameters":["{CommonEvents.Armies1_Unconsicous.[6]}"]},{"code":401,"indent":0,"parameters":["{CommonEvents.Armies1_Unconsicous.[7]}"]},{"code":230,"indent":0,"parameters":[60]},{"code":111,"indent":0,"parameters":[0,46,1]},{"code":117,"indent":1,"parameters":[24]},{"code":0,"indent":1,"parameters":[]},{"code":411,"indent":0,"parameters":[]},{"code":122,"indent":1,"parameters":[6,6,1,0,1]},{"code":0,"indent":1,"parameters":[]},{"code":412,"indent":0,"parameters":[]},{"code":117,"indent":0,"parameters":[32]},{"code":0,"indent":0,"parameters":[]}],"name":"Armies1.Unconsicous","switchId":1,"trigger":0},
{"id":32,"list":[{"code":221,"indent":0,"parameters":[]},{"code":235,"indent":0,"parameters":[1]},{"code":235,"indent":0,"parameters":[2]},{"code":121,"indent":0,"parameters":[59,59,0]},{"code":111,"indent":0,"parameters":[0,53,0]},{"code":121,"indent":1,"parameters":[60,60,0]},{"code":0,"indent":1,"parameters":[]},{"code":412,"indent":0,"parameters":[]},{"code":111,"indent":0,"parameters":[0,55,0]},{"code":121,"indent":1,"parameters":[60,60,0]},{"code":0,"indent":1,"parameters":[]},{"code":412,"indent":0,"parameters":[]},{"code":211,"indent":0,"parameters":[1]},{"code":357,"indent":0,"parameters":["DK_Character_Zoom","ZoomCharacter","ZoomCharacter",{"scaleX":"100","scaleY":"100","character":"0","duration":"0","wait":"true"}]},{"code":657,"indent":0,"parameters":["Scale X = 100"]},{"code":657,"indent":0,"parameters":["Scale Y = 100"]},{"code":657,"indent":0,"parameters":["Character = 0"]},{"code":657,"indent":0,"parameters":["Duration = 0"]},{"code":657,"indent":0,"parameters":["Wait = true"]},{"code":205,"indent":0,"parameters":[-1,{"list":[{"code":40,"indent":null},{"code":29,"parameters":[4],"indent":null},{"code":0}],"repeat":false,"skippable":false,"wait":true}]},{"code":505,"indent":0,"parameters":[{"code":40,"indent":null}]},{"code":505,"indent":0,"parameters":[{"code":29,"parameters":[4],"indent":null}]},{"code":201,"indent":0,"parameters":[0,14,9,13,4,2]},{"code":230,"indent":0,"parameters":[60]},{"code":222,"indent":0,"parameters":[]},{"code":244,"indent":0,"parameters":[]},{"code":0,"indent":0,"parameters":[]}],"name":"Armies1.End","switchId":1,"trigger":0},
{"id":33,"list":[{"code":243,"indent":0,"parameters":[]},{"code":242,"indent":0,"parameters":[2]},{"code":230,"indent":0,"parameters":[60]},{"code":221,"indent":0,"parameters":[]},{"code":101,"indent":0,"parameters":["",0,0,2,"{actors[4].name}"]},{"code":401,"indent":0,"parameters":["\\F[rin_standard]{CommonEvents.Ruins_Meet.[0]}"]},{"code":231,"indent":0,"parameters":[1,"Chapter01_0601",0,0,0,0,50,50,255,0]},{"code":230,"indent":0,"parameters":[60]},{"code":241,"indent":0,"parameters":[{"name":"MVre_Field2","volume":90,"pitch":100,"pan":0}]},{"code":222,"indent":0,"parameters":[]},{"code":101,"indent":0,"parameters":["",0,0,2,"{actors[5].name}"]},{"code":401,"indent":0,"parameters":["{CommonEvents.Ruins_Meet.[1]}"]},{"code":101,"indent":0,"parameters":["",0,0,0,"{actors[4].name}"]},{"code":401,"indent":0,"parameters":["{CommonEvents.Ruins_Meet.[2]}"]},{"code":221,"indent":0,"parameters":[]},{"code":231,"indent":0,"parameters":[1,"Chapter01_0602",0,0,0,0,50,50,255,0]},{"code":230,"indent":0,"parameters":[60]},{"code":222,"indent":0,"parameters":[]},{"code":101,"indent":0,"parameters":["",0,0,2,"{actors[5].name}"]},{"code":401,"indent":0,"parameters":["{CommonEvents.Ruins_Meet.[3]}"]},{"code":101,"indent":0,"parameters":["",0,0,0,"{actors[4].name}"]},{"code":401,"indent":0,"parameters":["{CommonEvents.Ruins_Meet.[4]}"]},{"code":102,"indent":0,"parameters":[["{CommonEvents.Ruins_Meet.[33]}","{CommonEvents.Ruins_Meet.[34]}"],1,0,2,0]},{"code":402,"indent":0,"parameters":[0,"{CommonEvents.Ruins_Meet.[33]}"]},{"code":122,"indent":1,"parameters":[5,5,1,0,1]},{"code":122,"indent":1,"parameters":[8,8,1,0,1]},{"code":101,"indent":1,"parameters":["",0,0,0,"{actors[4].name}"]},{"code":401,"indent":1,"parameters":["{CommonEvents.Ruins_Meet.[5]}"]},{"code":101,"indent":1,"parameters":["",0,0,2,"{actors[5].name}"]},{"code":401,"indent":1,"parameters":["{CommonEvents.Ruins_Meet.[6]}"]},{"code":101,"indent":1,"parameters":["",0,0,0,"{actors[4].name}"]},{"code":401,"indent":1,"parameters":["{CommonEvents.Ruins_Meet.[7]}"]},{"code":101,"indent":1,"parameters":["",0,0,2,"{actors[5].name}"]},{"code":401,"indent":1,"parameters":["{CommonEvents.Ruins_Meet.[8]}"]},{"code":101,"indent":1,"parameters":["",0,0,0,"{actors[4].name}"]},{"code":401,"indent":1,"parameters":["{CommonEvents.Ruins_Meet.[9]}"]},{"code":101,"indent":1,"parameters":["",0,0,0,"{actors[4].name}"]},{"code":401,"indent":1,"parameters":["{CommonEvents.Ruins_Meet.[10]}"]},{"code":0,"indent":1,"parameters":[]},{"code":402,"indent":0,"parameters":[1,"{CommonEvents.Ruins_Meet.[34]}"]},{"code":122,"indent":1,"parameters":[7,7,1,0,1]},{"code":122,"indent":1,"parameters":[8,8,1,0,1]},{"code":101,"indent":1,"parameters":["",0,0,0,"{actors[4].name}"]},{"code":401,"indent":1,"parameters":["{CommonEvents.Ruins_Meet.[11]}"]},{"code":101,"indent":1,"parameters":["",0,0,2,"{actors[5].name}"]},{"code":401,"indent":1,"parameters":["{CommonEvents.Ruins_Meet.[12]}"]},{"code":101,"indent":1,"parameters":["",0,0,0,"{actors[4].name}"]},{"code":401,"indent":1,"parameters":["{CommonEvents.Ruins_Meet.[13]}"]},{"code":101,"indent":1,"parameters":["",0,0,2,"{actors[5].name}"]},{"code":401,"indent":1,"parameters":["{CommonEvents.Ruins_Meet.[14]}"]},{"code":101,"indent":1,"parameters":["",0,0,0,"{actors[4].name}"]},{"code":401,"indent":1,"parameters":["{CommonEvents.Ruins_Meet.[15]}"]},{"code":101,"indent":1,"parameters":["",0,0,2,"{actors[5].name}"]},{"code":401,"indent":1,"parameters":["{CommonEvents.Ruins_Meet.[16]}"]},{"code":101,"indent":1,"parameters":["",0,0,2,"{actors[5].name}"]},{"code":401,"indent":1,"parameters":["{CommonEvents.Ruins_Meet.[17]}"]},{"code":0,"indent":1,"parameters":[]},{"code":404,"indent":0,"parameters":[]},{"code":230,"indent":0,"parameters":[60]},{"code":101,"indent":0,"parameters":["",0,0,2,"{actors[4].name}"]},{"code":401,"indent":0,"parameters":["{CommonEvents.Ruins_Meet.[18]}"]},{"code":230,"indent":0,"parameters":[60]},{"code":221,"indent":0,"parameters":[]},{"code":111,"indent":0,"parameters":[0,45,0]},{"code":231,"indent":1,"parameters":[1,"Chapter01_0604",0,0,0,0,50,50,255,0]},{"code":230,"indent":1,"parameters":[60]},{"code":222,"indent":1,"parameters":[]},{"code":101,"indent":1,"parameters":["",0,0,0,"{actors[4].name}"]},{"code":401,"indent":1,"parameters":["{CommonEvents.Ruins_Meet.[19]}"]},{"code":101,"indent":1,"parameters":["",0,0,2,"{actors[5].name}"]},{"code":401,"indent":1,"parameters":["{CommonEvents.Ruins_Meet.[20]}"]},{"code":101,"indent":1,"parameters":["",0,0,0,"{actors[4].name}"]},{"code":401,"indent":1,"parameters":["{CommonEvents.Ruins_Meet.[21]}"]},{"code":230,"indent":1,"parameters":[60]},{"code":221,"indent":1,"parameters":[]},{"code":231,"indent":1,"parameters":[1,"Chapter01_0605",0,0,0,0,50,50,255,0]},{"code":230,"indent":1,"parameters":[60]},{"code":222,"indent":1,"parameters":[]},{"code":101,"indent":1,"parameters":["",0,0,2,"Kgaura"]},{"code":401,"indent":1,"parameters":["{CommonEvents.Ruins_Meet.[22]}"]},{"code":101,"indent":1,"parameters":["",0,0,0,"{actors[4].name}"]},{"code":401,"indent":1,"parameters":["{CommonEvents.Ruins_Meet.[23]}"]},{"code":101,"indent":1,"parameters":["",0,0,2,"{actors[5].name}"]},{"code":401,"indent":1,"parameters":["{CommonEvents.Ruins_Meet.[24]}"]},{"code":401,"indent":1,"parameters":["{CommonEvents.Ruins_Meet.[25]}"]},{"code":231,"indent":1,"parameters":[2,"Chapter01_0606",0,0,0,0,50,50,255,0]},{"code":230,"indent":1,"parameters":[60]},{"code":101,"indent":1,"parameters":["",0,0,0,"{actors[4].name}"]},{"code":401,"indent":1,"parameters":["{CommonEvents.Ruins_Meet.[26]}"]},{"code":101,"indent":1,"parameters":["",0,0,2,"{actors[5].name}"]},{"code":401,"indent":1,"parameters":["{CommonEvents.Ruins_Meet.[27]}"]},{"code":101,"indent":1,"parameters":["",0,0,2,"{actors[5].name}"]},{"code":401,"indent":1,"parameters":["{CommonEvents.Ruins_Meet.[28]}"]},{"code":101,"indent":1,"parameters":["",0,0,0,"{actors[4].name}"]},{"code":401,"indent":1,"parameters":["{CommonEvents.Ruins_Meet.[29]}"]},{"code":231,"indent":1,"parameters":[1,"Chapter01_0607",0,0,0,0,50,50,255,0]},{"code":235,"indent":1,"parameters":[2]},{"code":230,"indent":1,"parameters":[60]},{"code":101,"indent":1,"parameters":["",0,0,2,"{actors[5].name}"]},{"code":401,"indent":1,"parameters":["{CommonEvents.Ruins_Meet.[30]}"]},{"code":101,"indent":1,"parameters":["",0,0,0,"{actors[4].name}"]},{"code":401,"indent":1,"parameters":["{CommonEvents.Ruins_Meet.[31]}"]},{"code":230,"indent":1,"parameters":[60]},{"code":221,"indent":1,"parameters":[]},{"code":0,"indent":1,"parameters":[]},{"code":411,"indent":0,"parameters":[]},{"code":0,"indent":1,"parameters":[]},{"code":412,"indent":0,"parameters":[]},{"code":242,"indent":0,"parameters":[2]},{"code":235,"indent":0,"parameters":[2]},{"code":235,"indent":0,"parameters":[1]},{"code":201,"indent":0,"parameters":[0,14,7,22,8,2]},{"code":230,"indent":0,"parameters":[60]},{"code":222,"indent":0,"parameters":[]},{"code":244,"indent":0,"parameters":[]},{"code":0,"indent":0,"parameters":[]}],"name":"Ruins.Meet","switchId":1,"trigger":0},
{"id":34,"list":[{"code":243,"indent":0,"parameters":[]},{"code":230,"indent":0,"parameters":[60]},{"code":242,"indent":0,"parameters":[3]},{"code":221,"indent":0,"parameters":[]},{"code":250,"indent":0,"parameters":[{"name":"Explosion2","volume":10,"pitch":100,"pan":0}]},{"code":230,"indent":0,"parameters":[90]},{"code":250,"indent":0,"parameters":[{"name":"Explosion2","volume":20,"pitch":100,"pan":0}]},{"code":230,"indent":0,"parameters":[60]},{"code":101,"indent":0,"parameters":["",0,0,2,"{actors[4].name}"]},{"code":401,"indent":0,"parameters":["\\F[rin_standard]{CommonEvents.Towers_Meet.[0]}"]},{"code":101,"indent":0,"parameters":["",0,0,2,"{actors[4].name}"]},{"code":401,"indent":0,"parameters":["\\F[rin_smiling]{CommonEvents.Towers_Meet.[1]}"]},{"code":230,"indent":0,"parameters":[60]},{"code":250,"indent":0,"parameters":[{"name":"mv_Door5","volume":90,"pitch":100,"pan":0}]},{"code":101,"indent":0,"parameters":["",0,0,2,""]},{"code":401,"indent":0,"parameters":["{CommonEvents.Towers_Meet.[2]}"]},{"code":101,"indent":0,"parameters":["",0,0,2,""]},{"code":401,"indent":0,"parameters":["{CommonEvents.Towers_Meet.[3]}"]},{"code":101,"indent":0,"parameters":["",0,0,2,"{actors[4].name}"]},{"code":401,"indent":0,"parameters":["\\F[rin_smiling]{CommonEvents.Towers_Meet.[4]}"]},{"code":211,"indent":0,"parameters":[0]},{"code":201,"indent":0,"parameters":[0,23,12,14,0,2]},{"code":230,"indent":0,"parameters":[60]},{"code":222,"indent":0,"parameters":[]},{"code":0,"indent":0,"parameters":[]}],"name":"Towers.Meet","switchId":1,"trigger":0},
{"id":35,"list":[{"code":221,"indent":0,"parameters":[]},{"code":243,"indent":0,"parameters":[]},{"code":242,"indent":0,"parameters":[4]},{"code":250,"indent":0,"parameters":[{"name":"Explosion2","volume":25,"pitch":100,"pan":0}]},{"code":230,"indent":0,"parameters":[90]},{"code":250,"indent":0,"parameters":[{"name":"Explosion2","volume":50,"pitch":100,"pan":0}]},{"code":230,"indent":0,"parameters":[120]},{"code":101,"indent":0,"parameters":["",0,0,2,"{actors[4].name}"]},{"code":401,"indent":0,"parameters":["\\F[rin_thinking]{CommonEvents.Village_Meet.[0]}"]},{"code":231,"indent":0,"parameters":[1,"Chapter01_0801",0,0,0,0,50,50,255,0]},{"code":230,"indent":0,"parameters":[60]},{"code":222,"indent":0,"parameters":[]},{"code":101,"indent":0,"parameters":["",0,0,0,"{actors[4].name}"]},{"code":401,"indent":0,"parameters":["{CommonEvents.Village_Meet.[1]}"]},{"code":101,"indent":0,"parameters":["",0,0,2,"{actors[5].name}"]},{"code":401,"indent":0,"parameters":["{CommonEvents.Village_Meet.[2]}"]},{"code":401,"indent":0,"parameters":["{CommonEvents.Village_Meet.[3]}"]},{"code":230,"indent":0,"parameters":[60]},{"code":101,"indent":0,"parameters":["",0,0,2,"{actors[5].name}"]},{"code":401,"indent":0,"parameters":["{CommonEvents.Village_Meet.[4]}"]},{"code":101,"indent":0,"parameters":["",0,0,0,"{actors[4].name}"]},{"code":401,"indent":0,"parameters":["{CommonEvents.Village_Meet.[5]}"]},{"code":221,"indent":0,"parameters":[]},{"code":230,"indent":0,"parameters":[60]},{"code":250,"indent":0,"parameters":[{"name":"Jump1","volume":90,"pitch":100,"pan":0}]},{"code":230,"indent":0,"parameters":[60]},{"code":250,"indent":0,"parameters":[{"name":"Jump1","volume":90,"pitch":100,"pan":0}]},{"code":230,"indent":0,"parameters":[60]},{"code":101,"indent":0,"parameters":["mv_People4",2,0,2,""]},{"code":401,"indent":0,"parameters":["{CommonEvents.Village_Meet.[6]}"]},{"code":101,"indent":0,"parameters":["mv_People4",1,0,2,""]},{"code":401,"indent":0,"parameters":["{CommonEvents.Village_Meet.[7]}"]},{"code":101,"indent":0,"parameters":["",0,0,2,"{actors[4].name}"]},{"code":401,"indent":0,"parameters":["\\F[rin_smiling]{CommonEvents.Village_Meet.[8]}"]},{"code":230,"indent":0,"parameters":[60]},{"code":101,"indent":0,"parameters":["",0,0,2,"{actors[5].name}"]},{"code":401,"indent":0,"parameters":["{CommonEvents.Village_Meet.[9]}"]},{"code":230,"indent":0,"parameters":[60]},{"code":221,"indent":0,"parameters":[]},{"code":231,"indent":0,"parameters":[1,"Chapter01_0802",0,0,0,0,50,50,255,0]},{"code":101,"indent":0,"parameters":["",0,0,0,"{actors[4].name}"]},{"code":401,"indent":0,"parameters":["\\F[rin_thinking]{CommonEvents.Village_Meet.[10]}"]},{"code":401,"indent":0,"parameters":["{CommonEvents.Village_Meet.[11]}"]},{"code":101,"indent":0,"parameters":["",0,0,2,"{actors[4].name}"]},{"code":401,"indent":0,"parameters":["\\F[rin_thinking]{CommonEvents.Village_Meet.[12]}"]},{"code":101,"indent":0,"parameters":["",0,0,2,"{actors[5].name}"]},{"code":401,"indent":0,"parameters":["{CommonEvents.Village_Meet.[13]}"]},{"code":230,"indent":0,"parameters":[60]},{"code":241,"indent":0,"parameters":[{"name":"Town7","volume":90,"pitch":100,"pan":0}]},{"code":222,"indent":0,"parameters":[]},{"code":101,"indent":0,"parameters":["People4",1,0,2,""]},{"code":401,"indent":0,"parameters":["{CommonEvents.Village_Meet.[14]}"]},{"code":101,"indent":0,"parameters":["People4",5,0,2,""]},{"code":401,"indent":0,"parameters":["{CommonEvents.Village_Meet.[15]}"]},{"code":231,"indent":0,"parameters":[2,"Chapter01_0803",0,0,0,0,50,50,255,0]},{"code":101,"indent":0,"parameters":["",0,0,0,"{actors[4].name}"]},{"code":401,"indent":0,"parameters":["{CommonEvents.Village_Meet.[16]}"]},{"code":230,"indent":0,"parameters":[60]},{"code":101,"indent":0,"parameters":["",0,0,0,"{actors[4].name}"]},{"code":401,"indent":0,"parameters":["{CommonEvents.Village_Meet.[17]}"]},{"code":230,"indent":0,"parameters":[60]},{"code":101,"indent":0,"parameters":["",0,0,0,"{actors[4].name}"]},{"code":401,"indent":0,"parameters":["{CommonEvents.Village_Meet.[18]}"]},{"code":101,"indent":0,"parameters":["People4",0,0,2,""]},{"code":401,"indent":0,"parameters":["{CommonEvents.Village_Meet.[19]}"]},{"code":101,"indent":0,"parameters":["People4",6,0,2,""]},{"code":401,"indent":0,"parameters":["{CommonEvents.Village_Meet.[20]}"]},{"code":101,"indent":0,"parameters":["",0,0,0,"{actors[4].name}"]},{"code":401,"indent":0,"parameters":["{CommonEvents.Village_Meet.[21]}"]},{"code":401,"indent":0,"parameters":["{CommonEvents.Village_Meet.[22]}"]},{"code":231,"indent":0,"parameters":[3,"Chapter01_0804",0,0,0,0,50,50,255,0]},{"code":101,"indent":0,"parameters":["",0,0,0,"{actors[4].name}"]},{"code":401,"indent":0,"parameters":["{CommonEvents.Village_Meet.[23]}"]},{"code":101,"indent":0,"parameters":["",0,0,0,"{actors[4].name}"]},{"code":401,"indent":0,"parameters":["{CommonEvents.Village_Meet.[24]}"]},{"code":230,"indent":0,"parameters":[60]},{"code":101,"indent":0,"parameters":["",0,0,0,"{actors[4].name}"]},{"code":401,"indent":0,"parameters":["{CommonEvents.Village_Meet.[25]}"]},{"code":235,"indent":0,"parameters":[3]},{"code":230,"indent":0,"parameters":[60]},{"code":101,"indent":0,"parameters":["People4",3,0,2,""]},{"code":401,"indent":0,"parameters":["{CommonEvents.Village_Meet.[26]}"]},{"code":101,"indent":0,"parameters":["People4",6,0,2,""]},{"code":401,"indent":0,"parameters":["{CommonEvents.Village_Meet.[27]}"]},{"code":401,"indent":0,"parameters":["{CommonEvents.Village_Meet.[28]}"]},{"code":101,"indent":0,"parameters":["People3",6,0,2,""]},{"code":401,"indent":0,"parameters":["{CommonEvents.Village_Meet.[29]}"]},{"code":101,"indent":0,"parameters":["People4",3,0,2,""]},{"code":401,"indent":0,"parameters":["{CommonEvents.Village_Meet.[30]}"]},{"code":401,"indent":0,"parameters":["{CommonEvents.Village_Meet.[31]}"]},{"code":235,"indent":0,"parameters":[2]},{"code":230,"indent":0,"parameters":[60]},{"code":101,"indent":0,"parameters":["",0,0,0,"{actors[4].name}"]},{"code":401,"indent":0,"parameters":["{CommonEvents.Village_Meet.[32]}"]},{"code":101,"indent":0,"parameters":["",0,0,0,"{actors[4].name}"]},{"code":401,"indent":0,"parameters":["{CommonEvents.Village_Meet.[33]}"]},{"code":101,"indent":0,"parameters":["",0,0,0,"{actors[4].name}"]},{"code":401,"indent":0,"parameters":["{CommonEvents.Village_Meet.[34]}"]},{"code":101,"indent":0,"parameters":["People4",3,0,2,""]},{"code":401,"indent":0,"parameters":["{CommonEvents.Village_Meet.[35]}"]},{"code":401,"indent":0,"parameters":["{CommonEvents.Village_Meet.[36]}"]},{"code":101,"indent":0,"parameters":["",0,0,2,"{actors[5].name}"]},{"code":401,"indent":0,"parameters":["{CommonEvents.Village_Meet.[37]}"]},{"code":230,"indent":0,"parameters":[60]},{"code":221,"indent":0,"parameters":[]},{"code":231,"indent":0,"parameters":[1,"Chapter01_0805",0,0,0,0,50,50,255,0]},{"code":101,"indent":0,"parameters":["",0,0,0,"{actors[4].name}"]},{"code":401,"indent":0,"parameters":["\\F[rin_thinking]{CommonEvents.Village_Meet.[38]}"]},{"code":101,"indent":0,"parameters":["",0,0,2,"{actors[4].name}"]},{"code":401,"indent":0,"parameters":["\\F[rin_thinking]{CommonEvents.Village_Meet.[39]}"]},{"code":101,"indent":0,"parameters":["",0,0,2,"{actors[4].name}"]},{"code":401,"indent":0,"parameters":["\\F[rin_thinking]{CommonEvents.Village_Meet.[40]}"]},{"code":230,"indent":0,"parameters":[60]},{"code":222,"indent":0,"parameters":[]},{"code":101,"indent":0,"parameters":["",0,0,0,"{actors[4].name}"]},{"code":401,"indent":0,"parameters":["{CommonEvents.Village_Meet.[41]}"]},{"code":101,"indent":0,"parameters":["",0,0,0,"{actors[4].name}"]},{"code":401,"indent":0,"parameters":["{CommonEvents.Village_Meet.[42]}"]},{"code":101,"indent":0,"parameters":["",0,0,2,"{actors[5].name}"]},{"code":401,"indent":0,"parameters":["{CommonEvents.Village_Meet.[43]}"]},{"code":221,"indent":0,"parameters":[]},{"code":250,"indent":0,"parameters":[{"name":"Earth5","volume":90,"pitch":100,"pan":0}]},{"code":231,"indent":0,"parameters":[1,"Chapter01_0806",0,0,0,0,50,50,255,0]},{"code":230,"indent":0,"parameters":[60]},{"code":222,"indent":0,"parameters":[]},{"code":101,"indent":0,"parameters":["People4",1,0,2,""]},{"code":401,"indent":0,"parameters":["{CommonEvents.Village_Meet.[44]}"]},{"code":101,"indent":0,"parameters":["People4",7,0,2,""]},{"code":401,"indent":0,"parameters":["{CommonEvents.Village_Meet.[45]}"]},{"code":401,"indent":0,"parameters":["{CommonEvents.Village_Meet.[46]}"]},{"code":101,"indent":0,"parameters":["People1",0,0,2,""]},{"code":401,"indent":0,"parameters":["{CommonEvents.Village_Meet.[47]}"]},{"code":230,"indent":0,"parameters":[60]},{"code":101,"indent":0,"parameters":["People1",0,0,2,""]},{"code":401,"indent":0,"parameters":["{CommonEvents.Village_Meet.[48]}"]},{"code":230,"indent":0,"parameters":[60]},{"code":221,"indent":0,"parameters":[]},{"code":250,"indent":0,"parameters":[{"name":"Earth5","volume":90,"pitch":100,"pan":0}]},{"code":231,"indent":0,"parameters":[1,"Chapter01_0807",0,0,0,0,50,50,255,0]},{"code":101,"indent":0,"parameters":["",0,0,2,"{actors[5].name}"]},{"code":401,"indent":0,"parameters":["{CommonEvents.Village_Meet.[49]}"]},{"code":101,"indent":0,"parameters":["",0,0,2,"{actors[4].name}"]},{"code":401,"indent":0,"parameters":["\\F[rin_smiling]{CommonEvents.Village_Meet.[50]}"]},{"code":230,"indent":0,"parameters":[60]},{"code":222,"indent":0,"parameters":[]},{"code":101,"indent":0,"parameters":["",0,0,0,"{actors[4].name}"]},{"code":401,"indent":0,"parameters":["{CommonEvents.Village_Meet.[51]}"]},{"code":102,"indent":0,"parameters":[["{CommonEvents.Village_Meet.[67]}","{CommonEvents.Village_Meet.[68]}"],-1,-1,2,0]},{"code":402,"indent":0,"parameters":[0,"{CommonEvents.Village_Meet.[67]}"]},{"code":101,"indent":1,"parameters":["",0,0,0,"{actors[4].name}"]},{"code":401,"indent":1,"parameters":["{CommonEvents.Village_Meet.[52]}"]},{"code":101,"indent":1,"parameters":["",0,0,2,"{actors[5].name}"]},{"code":401,"indent":1,"parameters":["{CommonEvents.Village_Meet.[53]}"]},{"code":101,"indent":1,"parameters":["",0,0,0,"{actors[4].name}"]},{"code":401,"indent":1,"parameters":["{CommonEvents.Village_Meet.[54]}"]},{"code":401,"indent":1,"parameters":["{CommonEvents.Village_Meet.[55]}"]},{"code":231,"indent":1,"parameters":[2,"Chapter01_0808",0,0,0,0,50,50,255,0]},{"code":101,"indent":1,"parameters":["",0,0,2,"{actors[5].name}"]},{"code":401,"indent":1,"parameters":["{CommonEvents.Village_Meet.[56]}"]},{"code":101,"indent":1,"parameters":["",0,0,0,"{actors[4].name}"]},{"code":401,"indent":1,"parameters":["{CommonEvents.Village_Meet.[57]}"]},{"code":122,"indent":1,"parameters":[5,5,1,0,1]},{"code":0,"indent":1,"parameters":[]},{"code":402,"indent":0,"parameters":[1,"{CommonEvents.Village_Meet.[68]}"]},{"code":121,"indent":1,"parameters":[62,62,0]},{"code":231,"indent":1,"parameters":[2,"Chapter01_0808",0,0,0,0,50,50,255,0]},{"code":101,"indent":1,"parameters":["",0,0,2,"{actors[4].name}"]},{"code":401,"indent":1,"parameters":["{CommonEvents.Village_Meet.[58]}"]},{"code":101,"indent":1,"parameters":["",0,0,2,"{actors[5].name}"]},{"code":401,"indent":1,"parameters":["{CommonEvents.Village_Meet.[59]}"]},{"code":101,"indent":1,"parameters":["",0,0,2,"{actors[5].name}"]},{"code":401,"indent":1,"parameters":["{CommonEvents.Village_Meet.[60]}"]},{"code":101,"indent":1,"parameters":["",0,0,0,"{actors[4].name}"]},{"code":401,"indent":1,"parameters":["{CommonEvents.Village_Meet.[61]}"]},{"code":101,"indent":1,"parameters":["",0,0,2,"{actors[5].name}"]},{"code":401,"indent":1,"parameters":["{CommonEvents.Village_Meet.[62]}"]},{"code":230,"indent":1,"parameters":[60]},{"code":101,"indent":1,"parameters":["",0,0,2,"{actors[5].name}"]},{"code":401,"indent":1,"parameters":["{CommonEvents.Village_Meet.[63]}"]},{"code":401,"indent":1,"parameters":["{CommonEvents.Village_Meet.[64]}"]},{"code":101,"indent":1,"parameters":["",0,0,0,"{actors[4].name}"]},{"code":401,"indent":1,"parameters":["{CommonEvents.Village_Meet.[65]}"]},{"code":122,"indent":1,"parameters":[7,7,1,0,1]},{"code":0,"indent":1,"parameters":[]},{"code":404,"indent":0,"parameters":[]},{"code":230,"indent":0,"parameters":[60]},{"code":121,"indent":0,"parameters":[64,64,0]},{"code":221,"indent":0,"parameters":[]},{"code":235,"indent":0,"parameters":[1]},{"code":235,"indent":0,"parameters":[2]},{"code":235,"indent":0,"parameters":[3]},{"code":211,"indent":0,"parameters":[0]},{"code":201,"indent":0,"parameters":[0,25,20,2,6,2]},{"code":0,"indent":0,"parameters":[]}],"name":"Village.Meet","switchId":1,"trigger":0},
{"id":36,"list":[{"code":230,"indent":0,"parameters":[60]},{"code":221,"indent":0,"parameters":[]},{"code":201,"indent":0,"parameters":[0,24,12,10,0,2]},{"code":0,"indent":0,"parameters":[]}],"name":"City.Enter","switchId":1,"trigger":0},
{"id":37,"list":[{"code":230,"indent":0,"parameters":[30]},{"code":250,"indent":0,"parameters":[{"name":"Move3","volume":90,"pitch":100,"pan":0}]},{"code":225,"indent":0,"parameters":[5,5,30,true]},{"code":250,"indent":0,"parameters":[{"name":"Move3","volume":90,"pitch":100,"pan":0}]},{"code":225,"indent":0,"parameters":[5,5,30,true]},{"code":213,"indent":0,"parameters":[-1,1,true]},{"code":101,"indent":0,"parameters":["",0,0,2,"{actors[5].name}"]},{"code":401,"indent":0,"parameters":["{CommonEvents.Party_MeetAgain.[0]}"]},{"code":221,"indent":0,"parameters":[]},{"code":250,"indent":0,"parameters":[{"name":"Move1","volume":90,"pitch":100,"pan":0}]},{"code":231,"indent":0,"parameters":[1,"Chapter01_1101",0,0,0,0,50,50,255,0]},{"code":230,"indent":0,"parameters":[60]},{"code":250,"indent":0,"parameters":[{"name":"Move1","volume":90,"pitch":100,"pan":0}]},{"code":230,"indent":0,"parameters":[60]},{"code":222,"indent":0,"parameters":[]},{"code":101,"indent":0,"parameters":["",0,0,2,"{actors[5].name}"]},{"code":401,"indent":0,"parameters":["{CommonEvents.Party_MeetAgain.[1]}"]},{"code":230,"indent":0,"parameters":[60]},{"code":101,"indent":0,"parameters":["",0,0,0,"{actors[4].name}"]},{"code":401,"indent":0,"parameters":["{CommonEvents.Party_MeetAgain.[2]}"]},{"code":101,"indent":0,"parameters":["",0,0,2,"{actors[5].name}"]},{"code":401,"indent":0,"parameters":["{CommonEvents.Party_MeetAgain.[3]}"]},{"code":101,"indent":0,"parameters":["",0,0,2,"{actors[5].name}"]},{"code":401,"indent":0,"parameters":["{CommonEvents.Party_MeetAgain.[4]}"]},{"code":231,"indent":0,"parameters":[2,"Chapter01_1102",0,0,0,0,50,50,255,0]},{"code":101,"indent":0,"parameters":["",0,0,0,"{actors[4].name}"]},{"code":401,"indent":0,"parameters":["{CommonEvents.Party_MeetAgain.[5]}"]},{"code":101,"indent":0,"parameters":["",0,0,0,"{actors[4].name}"]},{"code":401,"indent":0,"parameters":["{CommonEvents.Party_MeetAgain.[6]}"]},{"code":221,"indent":0,"parameters":[]},{"code":235,"indent":0,"parameters":[2]},{"code":231,"indent":0,"parameters":[1,"Chapter01_1103",0,0,0,0,50,50,255,0]},{"code":230,"indent":0,"parameters":[60]},{"code":222,"indent":0,"parameters":[]},{"code":101,"indent":0,"parameters":["",0,0,0,"{actors[4].name}"]},{"code":401,"indent":0,"parameters":["{CommonEvents.Party_MeetAgain.[7]}"]},{"code":101,"indent":0,"parameters":["",0,0,2,"{actors[5].name}"]},{"code":401,"indent":0,"parameters":["{CommonEvents.Party_MeetAgain.[8]}"]},{"code":230,"indent":0,"parameters":[60]},{"code":101,"indent":0,"parameters":["",0,0,2,"{actors[5].name}"]},{"code":401,"indent":0,"parameters":["{CommonEvents.Party_MeetAgain.[9]}"]},{"code":231,"indent":0,"parameters":[2,"Chapter01_1105",0,0,0,0,50,50,255,0]},{"code":101,"indent":0,"parameters":["",0,0,0,"{actors[4].name}"]},{"code":401,"indent":0,"parameters":["{CommonEvents.Party_MeetAgain.[10]}"]},{"code":401,"indent":0,"parameters":["{CommonEvents.Party_MeetAgain.[11]}"]},{"code":101,"indent":0,"parameters":["",0,0,0,"{actors[4].name}"]},{"code":401,"indent":0,"parameters":["{CommonEvents.Party_MeetAgain.[12]}"]},{"code":101,"indent":0,"parameters":["",0,0,2,"{actors[5].name}"]},{"code":401,"indent":0,"parameters":["{CommonEvents.Party_MeetAgain.[13]}"]},{"code":401,"indent":0,"parameters":["{CommonEvents.Party_MeetAgain.[14]}"]},{"code":101,"indent":0,"parameters":["",0,0,0,"{actors[4].name}"]},{"code":401,"indent":0,"parameters":["{CommonEvents.Party_MeetAgain.[15]}"]},{"code":101,"indent":0,"parameters":["",0,0,2,"{actors[5].name}"]},{"code":401,"indent":0,"parameters":["{CommonEvents.Party_MeetAgain.[16]}"]},{"code":231,"indent":0,"parameters":[3,"Chapter01_1104",0,0,0,0,50,50,255,0]},{"code":101,"indent":0,"parameters":["",0,0,0,"{actors[4].name}"]},{"code":401,"indent":0,"parameters":["{CommonEvents.Party_MeetAgain.[17]}"]},{"code":101,"indent":0,"parameters":["",0,0,0,"{actors[4].name}"]},{"code":401,"indent":0,"parameters":["{CommonEvents.Party_MeetAgain.[18]}"]},{"code":230,"indent":0,"parameters":[60]},{"code":101,"indent":0,"parameters":["",0,0,2,"{actors[5].name}"]},{"code":401,"indent":0,"parameters":["{CommonEvents.Party_MeetAgain.[19]}"]},{"code":101,"indent":0,"parameters":["",0,0,0,"{actors[4].name}"]},{"code":401,"indent":0,"parameters":["{CommonEvents.Party_MeetAgain.[20]}"]},{"code":101,"indent":0,"parameters":["",0,0,2,"{actors[5].name}"]},{"code":401,"indent":0,"parameters":["{CommonEvents.Party_MeetAgain.[21]}"]},{"code":102,"indent":0,"parameters":[["{CommonEvents.Party_MeetAgain.[32]}","{CommonEvents.Party_MeetAgain.[33]}"],-1,-1,2,0]},{"code":402,"indent":0,"parameters":[0,"{CommonEvents.Party_MeetAgain.[32]}"]},{"code":101,"indent":1,"parameters":["",0,0,2,"{actors[5].name}"]},{"code":401,"indent":1,"parameters":["{CommonEvents.Party_MeetAgain.[22]}"]},{"code":401,"indent":1,"parameters":["{CommonEvents.Party_MeetAgain.[23]}"]},{"code":101,"indent":1,"parameters":["",0,0,0,"{actors[4].name}"]},{"code":401,"indent":1,"parameters":["{CommonEvents.Party_MeetAgain.[24]}"]},{"code":0,"indent":1,"parameters":[]},{"code":402,"indent":0,"parameters":[1,"{CommonEvents.Party_MeetAgain.[33]}"]},{"code":122,"indent":1,"parameters":[8,8,1,0,1]},{"code":101,"indent":1,"parameters":["",0,0,2,"{actors[5].name}"]},{"code":401,"indent":1,"parameters":["{CommonEvents.Party_MeetAgain.[25]}"]},{"code":401,"indent":1,"parameters":["{CommonEvents.Party_MeetAgain.[26]}"]},{"code":101,"indent":1,"parameters":["",0,0,2,"{actors[5].name}"]},{"code":401,"indent":1,"parameters":["{CommonEvents.Party_MeetAgain.[27]}"]},{"code":231,"indent":1,"parameters":[4,"Chapter01_1106",0,0,0,0,50,50,255,0]},{"code":101,"indent":1,"parameters":["",0,0,0,"{actors[4].name}"]},{"code":401,"indent":1,"parameters":["{CommonEvents.Party_MeetAgain.[28]}"]},{"code":0,"indent":1,"parameters":[]},{"code":404,"indent":0,"parameters":[]},{"code":101,"indent":0,"parameters":["",0,0,0,"{actors[4].name}"]},{"code":401,"indent":0,"parameters":["{CommonEvents.Party_MeetAgain.[29]}"]},{"code":101,"indent":0,"parameters":["",0,0,2,"{actors[5].name}"]},{"code":401,"indent":0,"parameters":["{CommonEvents.Party_MeetAgain.[30]}"]},{"code":221,"indent":0,"parameters":[]},{"code":235,"indent":0,"parameters":[1]},{"code":235,"indent":0,"parameters":[2]},{"code":235,"indent":0,"parameters":[3]},{"code":235,"indent":0,"parameters":[4]},{"code":129,"indent":0,"parameters":[5,1,false]},{"code":129,"indent":0,"parameters":[4,0,false]},{"code":129,"indent":0,"parameters":[5,0,false]},{"code":129,"indent":0,"parameters":[4,0,false]},{"code":121,"indent":0,"parameters":[73,73,0]},{"code":122,"indent":0,"parameters":[20,20,1,0,1]},{"code":201,"indent":0,"parameters":[0,14,18,6,2,2]},{"code":230,"indent":0,"parameters":[60]},{"code":222,"indent":0,"parameters":[]},{"code":0,"indent":0,"parameters":[]}],"name":"Party.MeetAgain","switchId":1,"trigger":0},
{"id":38,"list":[{"code":221,"indent":0,"parameters":[]},{"code":243,"indent":0,"parameters":[]},{"code":242,"indent":0,"parameters":[4]},{"code":250,"indent":0,"parameters":[{"name":"Explosion2","volume":25,"pitch":100,"pan":0}]},{"code":230,"indent":0,"parameters":[90]},{"code":250,"indent":0,"parameters":[{"name":"Explosion2","volume":50,"pitch":100,"pan":0}]},{"code":230,"indent":0,"parameters":[120]},{"code":101,"indent":0,"parameters":["",0,0,2,"{actors[4].name}"]},{"code":401,"indent":0,"parameters":["\\F[rin_smiling]{CommonEvents.Village_MeetAgain.[0]}"]},{"code":231,"indent":0,"parameters":[1,"Chapter01_1201",0,0,0,0,50,50,255,0]},{"code":230,"indent":0,"parameters":[60]},{"code":241,"indent":0,"parameters":[{"name":"Town7","volume":90,"pitch":100,"pan":0}]},{"code":222,"indent":0,"parameters":[]},{"code":101,"indent":0,"parameters":["",0,0,0,"{actors[4].name}"]},{"code":401,"indent":0,"parameters":["{CommonEvents.Village_MeetAgain.[1]}"]},{"code":101,"indent":0,"parameters":["People1",1,0,2,""]},{"code":401,"indent":0,"parameters":["{CommonEvents.Village_MeetAgain.[2]}"]},{"code":101,"indent":0,"parameters":["",0,0,0,"{actors[4].name}"]},{"code":401,"indent":0,"parameters":["{CommonEvents.Village_MeetAgain.[3]}"]},{"code":221,"indent":0,"parameters":[]},{"code":231,"indent":0,"parameters":[1,"Chapter01_1202",0,0,0,0,50,50,255,0]},{"code":230,"indent":0,"parameters":[60]},{"code":222,"indent":0,"parameters":[]},{"code":101,"indent":0,"parameters":["People4",1,0,2,""]},{"code":401,"indent":0,"parameters":["{CommonEvents.Village_MeetAgain.[4]}"]},{"code":101,"indent":0,"parameters":["",0,0,0,"{actors[4].name}"]},{"code":401,"indent":0,"parameters":["{CommonEvents.Village_MeetAgain.[5]}"]},{"code":101,"indent":0,"parameters":["",0,0,0,"{actors[4].name}"]},{"code":401,"indent":0,"parameters":["{CommonEvents.Village_MeetAgain.[6]}"]},{"code":231,"indent":0,"parameters":[2,"Chapter01_1203",0,0,0,0,50,50,255,0]},{"code":111,"indent":0,"parameters":[0,70,0]},{"code":101,"indent":1,"parameters":["",0,0,0,"{actors[4].name}"]},{"code":401,"indent":1,"parameters":["{CommonEvents.Village_MeetAgain.[7]}"]},{"code":401,"indent":1,"parameters":["{CommonEvents.Village_MeetAgain.[8]}"]},{"code":0,"indent":1,"parameters":[]},{"code":412,"indent":0,"parameters":[]},{"code":111,"indent":0,"parameters":[0,71,0]},{"code":101,"indent":1,"parameters":["",0,0,0,"{actors[4].name}"]},{"code":401,"indent":1,"parameters":["{CommonEvents.Village_MeetAgain.[9]}"]},{"code":0,"indent":1,"parameters":[]},{"code":412,"indent":0,"parameters":[]},{"code":230,"indent":0,"parameters":[60]},{"code":101,"indent":0,"parameters":["People4",0,0,2,""]},{"code":401,"indent":0,"parameters":["{CommonEvents.Village_MeetAgain.[10]}"]},{"code":101,"indent":0,"parameters":["People4",6,0,2,""]},{"code":401,"indent":0,"parameters":["{CommonEvents.Village_MeetAgain.[11]}"]},{"code":401,"indent":0,"parameters":["{CommonEvents.Village_MeetAgain.[12]}"]},{"code":101,"indent":0,"parameters":["",0,0,0,"{actors[4].name}"]},{"code":401,"indent":0,"parameters":["{CommonEvents.Village_MeetAgain.[13]}"]},{"code":101,"indent":0,"parameters":["People4",3,0,2,""]},{"code":401,"indent":0,"parameters":["{CommonEvents.Village_MeetAgain.[14]}"]},{"code":101,"indent":0,"parameters":["People4",5,0,2,""]},{"code":401,"indent":0,"parameters":["{CommonEvents.Village_MeetAgain.[15]}"]},{"code":101,"indent":0,"parameters":["People4",3,0,2,""]},{"code":401,"indent":0,"parameters":["{CommonEvents.Village_MeetAgain.[16]}"]},{"code":401,"indent":0,"parameters":["{CommonEvents.Village_MeetAgain.[17]}"]},{"code":101,"indent":0,"parameters":["",0,0,0,"{actors[4].name}"]},{"code":401,"indent":0,"parameters":["{CommonEvents.Village_MeetAgain.[18]}"]},{"code":221,"indent":0,"parameters":[]},{"code":235,"indent":0,"parameters":[2]},{"code":231,"indent":0,"parameters":[1,"Chapter01_1204",0,0,0,0,50,50,255,0]},{"code":230,"indent":0,"parameters":[60]},{"code":222,"indent":0,"parameters":[]},{"code":101,"indent":0,"parameters":["",0,0,0,"{actors[4].name}"]},{"code":401,"indent":0,"parameters":["{CommonEvents.Village_MeetAgain.[19]}"]},{"code":101,"indent":0,"parameters":["",0,0,0,"{actors[4].name}"]},{"code":401,"indent":0,"parameters":["{CommonEvents.Village_MeetAgain.[20]}"]},{"code":401,"indent":0,"parameters":["{CommonEvents.Village_MeetAgain.[21]}"]},{"code":230,"indent":0,"parameters":[60]},{"code":101,"indent":0,"parameters":["People1",1,0,2,""]},{"code":401,"indent":0,"parameters":["{CommonEvents.Village_MeetAgain.[22]}"]},{"code":101,"indent":0,"parameters":["People1",3,0,2,""]},{"code":401,"indent":0,"parameters":["{CommonEvents.Village_MeetAgain.[23]}"]},{"code":101,"indent":0,"parameters":["",0,0,0,"{actors[4].name}"]},{"code":401,"indent":0,"parameters":["{CommonEvents.Village_MeetAgain.[24]}"]},{"code":221,"indent":0,"parameters":[]},{"code":250,"indent":0,"parameters":[{"name":"Earth5","volume":90,"pitch":100,"pan":0}]},{"code":231,"indent":0,"parameters":[1,"Chapter01_0808",0,0,0,0,50,50,255,0]},{"code":230,"indent":0,"parameters":[60]},{"code":222,"indent":0,"parameters":[]},{"code":101,"indent":0,"parameters":["",0,0,0,"{actors[4].name}"]},{"code":401,"indent":0,"parameters":["{CommonEvents.Village_MeetAgain.[25]}"]},{"code":401,"indent":0,"parameters":["{CommonEvents.Village_MeetAgain.[26]}"]},{"code":101,"indent":0,"parameters":["",0,0,2,"{actors[5].name}"]},{"code":401,"indent":0,"parameters":["{CommonEvents.Village_MeetAgain.[27]}"]},{"code":101,"indent":0,"parameters":["",0,0,0,"{actors[4].name}"]},{"code":401,"indent":0,"parameters":["{CommonEvents.Village_MeetAgain.[28]}"]},{"code":230,"indent":0,"parameters":[60]},{"code":121,"indent":0,"parameters":[74,74,0]},{"code":221,"indent":0,"parameters":[]},{"code":235,"indent":0,"parameters":[1]},{"code":235,"indent":0,"parameters":[2]},{"code":235,"indent":0,"parameters":[3]},{"code":211,"indent":0,"parameters":[1]},{"code":201,"indent":0,"parameters":[0,14,9,14,6,2]},{"code":230,"indent":0,"parameters":[60]},{"code":222,"indent":0,"parameters":[]},{"code":0,"indent":0,"parameters":[]}],"name":"Village.MeetAgain","switchId":1,"trigger":0},
{"id":39,"list":[{"code":101,"indent":0,"parameters":["",0,0,2,"{actors[4].name}"]},{"code":401,"indent":0,"parameters":["\\F[rin_smiling]{CommonEvents.Beach_Rin.[0]}"]},{"code":0,"indent":0,"parameters":[]}],"name":"Beach.Rin","switchId":1,"trigger":0},
{"id":40,"list":[{"code":0,"indent":0,"parameters":[]}],"name":"","switchId":1,"trigger":0},
{"id":41,"list":[{"code":0,"indent":0,"parameters":[]}],"name":"","switchId":1,"trigger":0},
{"id":42,"list":[{"code":0,"indent":0,"parameters":[]}],"name":"","switchId":1,"trigger":0},
{"id":43,"list":[{"code":0,"indent":0,"parameters":[]}],"name":"","switchId":1,"trigger":0},
{"id":44,"list":[{"code":0,"indent":0,"parameters":[]}],"name":"","switchId":1,"trigger":0},
{"id":45,"list":[{"code":0,"indent":0,"parameters":[]}],"name":"","switchId":1,"trigger":0},
{"id":46,"list":[{"code":0,"indent":0,"parameters":[]}],"name":"= Chapter 2","switchId":1,"trigger":0},
{"id":47,"list":[{"code":230,"indent":0,"parameters":[60]},{"code":221,"indent":0,"parameters":[]},{"code":101,"indent":0,"parameters":["",0,0,2,"{actors[4].name}"]},{"code":401,"indent":0,"parameters":["\\F[rin_thinking]{CommonEvents.Land_Crossing1.[0]}"]},{"code":101,"indent":0,"parameters":["",0,0,2,""]},{"code":401,"indent":0,"parameters":["{CommonEvents.Land_Crossing1.[1]}"]},{"code":231,"indent":0,"parameters":[1,"Chapter02_0302",0,0,0,0,50,50,255,0]},{"code":222,"indent":0,"parameters":[]},{"code":101,"indent":0,"parameters":["",0,0,2,""]},{"code":401,"indent":0,"parameters":["{CommonEvents.Land_Crossing1.[2]}"]},{"code":401,"indent":0,"parameters":["{CommonEvents.Land_Crossing1.[3]}"]},{"code":101,"indent":0,"parameters":["",0,0,2,""]},{"code":401,"indent":0,"parameters":["{CommonEvents.Land_Crossing1.[4]}"]},{"code":101,"indent":0,"parameters":["",0,0,2,""]},{"code":401,"indent":0,"parameters":["{CommonEvents.Land_Crossing1.[5]}"]},{"code":230,"indent":0,"parameters":[60]},{"code":221,"indent":0,"parameters":[]},{"code":235,"indent":0,"parameters":[1]},{"code":230,"indent":0,"parameters":[60]},{"code":222,"indent":0,"parameters":[]},{"code":0,"indent":0,"parameters":[]}],"name":"Land.Crossing1","switchId":1,"trigger":0},
{"id":48,"list":[{"code":0,"indent":0,"parameters":[]}],"name":"","switchId":1,"trigger":0},
{"id":49,"list":[{"code":0,"indent":0,"parameters":[]}],"name":"","switchId":1,"trigger":0},
{"id":50,"list":[{"code":0,"indent":0,"parameters":[]}],"name":"","switchId":1,"trigger":0},
{"id":51,"list":[{"code":0,"indent":0,"parameters":[]}],"name":"","switchId":1,"trigger":0},
{"id":52,"list":[{"code":0,"indent":0,"parameters":[]}],"name":"","switchId":1,"trigger":0},
{"id":53,"list":[{"code":0,"indent":0,"parameters":[]}],"name":"","switchId":1,"trigger":0},
{"id":54,"list":[{"code":0,"indent":0,"parameters":[]}],"name":"","switchId":1,"trigger":0},
{"id":55,"list":[{"code":0,"indent":0,"parameters":[]}],"name":"","switchId":1,"trigger":0},
{"id":56,"list":[{"code":0,"indent":0,"parameters":[]}],"name":"","switchId":1,"trigger":0},
{"id":57,"list":[{"code":0,"indent":0,"parameters":[]}],"name":"","switchId":1,"trigger":0},
{"id":58,"list":[{"code":0,"indent":0,"parameters":[]}],"name":"","switchId":1,"trigger":0},
{"id":59,"list":[{"code":0,"indent":0,"parameters":[]}],"name":"","switchId":1,"trigger":0},
{"id":60,"list":[{"code":0,"indent":0,"parameters":[]}],"name":"","switchId":1,"trigger":0},
{"id":61,"list":[{"code":0,"indent":0,"parameters":[]}],"name":"","switchId":1,"trigger":0},
{"id":62,"list":[{"code":0,"indent":0,"parameters":[]}],"name":"","switchId":1,"trigger":0},
{"id":63,"list":[{"code":0,"indent":0,"parameters":[]}],"name":"","switchId":1,"trigger":0},
{"id":64,"list":[{"code":0,"indent":0,"parameters":[]}],"name":"","switchId":1,"trigger":0},
{"id":65,"list":[{"code":0,"indent":0,"parameters":[]}],"name":"","switchId":1,"trigger":0},
{"id":66,"list":[{"code":0,"indent":0,"parameters":[]}],"name":"","switchId":1,"trigger":0},
{"id":67,"list":[{"code":0,"indent":0,"parameters":[]}],"name":"","switchId":1,"trigger":0},
{"id":68,"list":[{"code":0,"indent":0,"parameters":[]}],"name":"","switchId":1,"trigger":0},
{"id":69,"list":[{"code":0,"indent":0,"parameters":[]}],"name":"","switchId":1,"trigger":0},
{"id":70,"list":[{"code":0,"indent":0,"parameters":[]}],"name":"","switchId":1,"trigger":0},
{"id":71,"list":[{"code":0,"indent":0,"parameters":[]}],"name":"","switchId":1,"trigger":0},
{"id":72,"list":[{"code":0,"indent":0,"parameters":[]}],"name":"","switchId":1,"trigger":0},
{"id":73,"list":[{"code":0,"indent":0,"parameters":[]}],"name":"","switchId":1,"trigger":0},
{"id":74,"list":[{"code":0,"indent":0,"parameters":[]}],"name":"","switchId":1,"trigger":0},
{"id":75,"list":[{"code":0,"indent":0,"parameters":[]}],"name":"","switchId":1,"trigger":0},
{"id":76,"list":[{"code":0,"indent":0,"parameters":[]}],"name":"","switchId":1,"trigger":0},
{"id":77,"list":[{"code":0,"indent":0,"parameters":[]}],"name":"","switchId":1,"trigger":0},
{"id":78,"list":[{"code":0,"indent":0,"parameters":[]}],"name":"","switchId":1,"trigger":0},
{"id":79,"list":[{"code":0,"indent":0,"parameters":[]}],"name":"","switchId":1,"trigger":0},
{"id":80,"list":[{"code":0,"indent":0,"parameters":[]}],"name":"= Combat ","switchId":54,"trigger":0},
{"id":81,"list":[{"code":122,"indent":0,"parameters":[35,35,0,3,8,5,0]},{"code":111,"indent":0,"parameters":[1,35,0,6,4]},{"code":108,"indent":1,"parameters":["Soldiers"]},{"code":122,"indent":1,"parameters":[36,36,0,0,0]},{"code":0,"indent":1,"parameters":[]},{"code":411,"indent":0,"parameters":[]},{"code":108,"indent":1,"parameters":["Mechanical"]},{"code":122,"indent":1,"parameters":[36,36,0,0,1]},{"code":0,"indent":1,"parameters":[]},{"code":412,"indent":0,"parameters":[]},{"code":117,"indent":0,"parameters":[82]},{"code":0,"indent":0,"parameters":[]}],"name":"Stomp.a.init","switchId":1,"trigger":0},
{"id":82,"list":[{"code":230,"indent":0,"parameters":[60]},{"code":221,"indent":0,"parameters":[]},{"code":231,"indent":0,"parameters":[1,"Chapter01_0514a1",0,0,0,0,50,50,255,0]},{"code":230,"indent":0,"parameters":[60]},{"code":222,"indent":0,"parameters":[]},{"code":101,"indent":0,"parameters":["",0,0,0,"{actors[4].name}"]},{"code":401,"indent":0,"parameters":["{CommonEvents.Stomp_a_act.[0]}"]},{"code":101,"indent":0,"parameters":["",0,0,0,"{actors[4].name}"]},{"code":401,"indent":0,"parameters":["{CommonEvents.Stomp_a_act.[1]}"]},{"code":401,"indent":0,"parameters":["{CommonEvents.Stomp_a_act.[2]}"]},{"code":221,"indent":0,"parameters":[]},{"code":250,"indent":0,"parameters":[{"name":"Earth3","volume":90,"pitch":100,"pan":0}]},{"code":231,"indent":0,"parameters":[1,"Chapter01_0514a2",0,0,0,0,50,50,255,0]},{"code":230,"indent":0,"parameters":[60]},{"code":222,"indent":0,"parameters":[]},{"code":101,"indent":0,"parameters":["",0,0,0,"{actors[4].name}"]},{"code":401,"indent":0,"parameters":["{CommonEvents.Stomp_a_act.[3]}"]},{"code":231,"indent":0,"parameters":[2,"Chapter01_0514a3",0,0,0,0,50,50,255,0]},{"code":250,"indent":0,"parameters":[{"name":"Earth5","volume":90,"pitch":100,"pan":0}]},{"code":230,"indent":0,"parameters":[30]},{"code":231,"indent":0,"parameters":[3,"Chapter01_0514a4",0,0,0,0,50,50,255,0]},{"code":250,"indent":0,"parameters":[{"name":"Earth5","volume":90,"pitch":100,"pan":0}]},{"code":230,"indent":0,"parameters":[60]},{"code":221,"indent":0,"parameters":[]},{"code":111,"indent":0,"parameters":[1,36,0,0,0]},{"code":250,"indent":1,"parameters":[{"name":"mv_bonesnap","volume":90,"pitch":100,"pan":0}]},{"code":0,"indent":1,"parameters":[]},{"code":411,"indent":0,"parameters":[]},{"code":250,"indent":1,"parameters":[{"name":"Explosion2","volume":90,"pitch":100,"pan":0}]},{"code":0,"indent":1,"parameters":[]},{"code":412,"indent":0,"parameters":[]},{"code":235,"indent":0,"parameters":[2]},{"code":235,"indent":0,"parameters":[3]},{"code":111,"indent":0,"parameters":[1,36,0,0,0]},{"code":231,"indent":1,"parameters":[1,"Chapter01_0514a6",0,0,0,0,50,50,255,0]},{"code":0,"indent":1,"parameters":[]},{"code":411,"indent":0,"parameters":[]},{"code":231,"indent":1,"parameters":[1,"Chapter01_0514a5",0,0,0,0,50,50,255,0]},{"code":0,"indent":1,"parameters":[]},{"code":412,"indent":0,"parameters":[]},{"code":230,"indent":0,"parameters":[60]},{"code":222,"indent":0,"parameters":[]},{"code":101,"indent":0,"parameters":["",0,0,0,"{actors[4].name}"]},{"code":401,"indent":0,"parameters":["{CommonEvents.Stomp_a_act.[4]}"]},{"code":230,"indent":0,"parameters":[60]},{"code":221,"indent":0,"parameters":[]},{"code":111,"indent":0,"parameters":[0,52,1]},{"code":121,"indent":1,"parameters":[52,52,0]},{"code":101,"indent":1,"parameters":["",0,1,2,""]},{"code":401,"indent":1,"parameters":["{CommonEvents.Stomp_a_act.[5]}"]},{"code":313,"indent":1,"parameters":[0,4,0,36]},{"code":0,"indent":1,"parameters":[]},{"code":412,"indent":0,"parameters":[]},{"code":235,"indent":0,"parameters":[1]},{"code":222,"indent":0,"parameters":[]},{"code":117,"indent":0,"parameters":[83]},{"code":0,"indent":0,"parameters":[]}],"name":"Stomp.a.act","switchId":1,"trigger":0},
{"id":83,"list":[{"code":339,"indent":0,"parameters":[1,4,259,-2]},{"code":0,"indent":0,"parameters":[]}],"name":"Stomp.a.damage","switchId":1,"trigger":0},
{"id":84,"list":[{"code":0,"indent":0,"parameters":[]}],"name":"","switchId":1,"trigger":0},
{"id":85,"list":[{"code":122,"indent":0,"parameters":[35,35,0,3,8,5,0]},{"code":111,"indent":0,"parameters":[1,35,0,6,4]},{"code":108,"indent":1,"parameters":["Soldiers"]},{"code":122,"indent":1,"parameters":[36,36,0,0,0]},{"code":0,"indent":1,"parameters":[]},{"code":411,"indent":0,"parameters":[]},{"code":108,"indent":1,"parameters":["Mechanical"]},{"code":122,"indent":1,"parameters":[36,36,0,0,1]},{"code":0,"indent":1,"parameters":[]},{"code":412,"indent":0,"parameters":[]},{"code":117,"indent":0,"parameters":[86]},{"code":0,"indent":0,"parameters":[]}],"name":"Pick.a.init","switchId":1,"trigger":0},
{"id":86,"list":[{"code":230,"indent":0,"parameters":[60]},{"code":221,"indent":0,"parameters":[]},{"code":231,"indent":0,"parameters":[1,"Chapter01_0514b1",0,0,0,0,50,50,255,0]},{"code":230,"indent":0,"parameters":[60]},{"code":222,"indent":0,"parameters":[]},{"code":101,"indent":0,"parameters":["",0,0,0,"{actors[4].name}"]},{"code":401,"indent":0,"parameters":["{CommonEvents.Pick_a_act.[0]}"]},{"code":101,"indent":0,"parameters":["",0,0,0,"{actors[4].name}"]},{"code":401,"indent":0,"parameters":["{CommonEvents.Pick_a_act.[1]}"]},{"code":221,"indent":0,"parameters":[]},{"code":250,"indent":0,"parameters":[{"name":"Earth3","volume":90,"pitch":100,"pan":0}]},{"code":231,"indent":0,"parameters":[1,"Chapter01_0514b2",0,0,0,0,50,50,255,0]},{"code":230,"indent":0,"parameters":[60]},{"code":222,"indent":0,"parameters":[]},{"code":230,"indent":0,"parameters":[60]},{"code":221,"indent":0,"parameters":[]},{"code":250,"indent":0,"parameters":[{"name":"Earth3","volume":90,"pitch":100,"pan":0}]},{"code":231,"indent":0,"parameters":[1,"Chapter01_0514b3",0,0,0,0,50,50,255,0]},{"code":230,"indent":0,"parameters":[60]},{"code":222,"indent":0,"parameters":[]},{"code":230,"indent":0,"parameters":[60]},{"code":221,"indent":0,"parameters":[]},{"code":250,"indent":0,"parameters":[{"name":"Equip2","volume":90,"pitch":100,"pan":0}]},{"code":111,"indent":0,"parameters":[1,36,0,0,0]},{"code":231,"indent":1,"parameters":[1,"Chapter01_0514b8",0,0,0,0,50,50,255,0]},{"code":0,"indent":1,"parameters":[]},{"code":411,"indent":0,"parameters":[]},{"code":231,"indent":1,"parameters":[1,"Chapter01_0514b4",0,0,0,0,50,50,255,0]},{"code":0,"indent":1,"parameters":[]},{"code":412,"indent":0,"parameters":[]},{"code":230,"indent":0,"parameters":[60]},{"code":222,"indent":0,"parameters":[]},{"code":111,"indent":0,"parameters":[1,36,0,0,0]},{"code":101,"indent":1,"parameters":["",0,0,0,"{actors[4].name}"]},{"code":401,"indent":1,"parameters":["{CommonEvents.Pick_a_act.[2]}"]},{"code":101,"indent":1,"parameters":["",0,0,0,"{actors[4].name}"]},{"code":401,"indent":1,"parameters":["{CommonEvents.Pick_a_act.[3]}"]},{"code":250,"indent":1,"parameters":[{"name":"mv_bonesnap","volume":90,"pitch":100,"pan":0}]},{"code":231,"indent":1,"parameters":[2,"Chapter01_0514b9",0,0,0,0,50,50,255,0]},{"code":101,"indent":1,"parameters":["",0,0,0,"{actors[4].name}"]},{"code":401,"indent":1,"parameters":["{CommonEvents.Pick_a_act.[4]}"]},{"code":230,"indent":1,"parameters":[60]},{"code":221,"indent":1,"parameters":[]},{"code":101,"indent":1,"parameters":["",0,0,2,"{actors[4].name}"]},{"code":401,"indent":1,"parameters":["\\F[rin_smiling]{CommonEvents.Pick_a_act.[5]}"]},{"code":102,"indent":1,"parameters":[["{CommonEvents.Pick_a_act.[23]}","{CommonEvents.Pick_a_act.[24]}","{CommonEvents.Pick_a_act.[25]}"],-1,0,2,0]},{"code":402,"indent":1,"parameters":[0,"{CommonEvents.Pick_a_act.[23]}"]},{"code":101,"indent":2,"parameters":["",0,0,2,"{actors[4].name}"]},{"code":401,"indent":2,"parameters":["\\F[rin_smirking]{CommonEvents.Pick_a_act.[6]}"]},{"code":0,"indent":2,"parameters":[]},{"code":402,"indent":1,"parameters":[1,"{CommonEvents.Pick_a_act.[24]}"]},{"code":101,"indent":2,"parameters":["",0,0,2,"{actors[4].name}"]},{"code":401,"indent":2,"parameters":["\\F[rin_thinking]{CommonEvents.Pick_a_act.[7]}"]},{"code":0,"indent":2,"parameters":[]},{"code":402,"indent":1,"parameters":[2,"{CommonEvents.Pick_a_act.[25]}"]},{"code":101,"indent":2,"parameters":["",0,0,2,"{actors[4].name}"]},{"code":401,"indent":2,"parameters":["\\F[rin_smirking]{CommonEvents.Pick_a_act.[8]}"]},{"code":401,"indent":2,"parameters":["{CommonEvents.Pick_a_act.[9]}"]},{"code":0,"indent":2,"parameters":[]},{"code":404,"indent":1,"parameters":[]},{"code":0,"indent":1,"parameters":[]},{"code":411,"indent":0,"parameters":[]},{"code":101,"indent":1,"parameters":["",0,0,0,"{actors[4].name}"]},{"code":401,"indent":1,"parameters":["{CommonEvents.Pick_a_act.[10]}"]},{"code":250,"indent":1,"parameters":[{"name":"Fire4","volume":90,"pitch":100,"pan":0}]},{"code":231,"indent":1,"parameters":[2,"Chapter01_0514b5",0,0,0,0,50,50,255,0]},{"code":101,"indent":1,"parameters":["",0,0,0,"{actors[4].name}"]},{"code":401,"indent":1,"parameters":["{CommonEvents.Pick_a_act.[11]}"]},{"code":101,"indent":1,"parameters":["",0,0,0,"{actors[4].name}"]},{"code":401,"indent":1,"parameters":["{CommonEvents.Pick_a_act.[12]}"]},{"code":230,"indent":1,"parameters":[60]},{"code":221,"indent":1,"parameters":[]},{"code":235,"indent":1,"parameters":[2]},{"code":250,"indent":1,"parameters":[{"name":"Earth3","volume":90,"pitch":100,"pan":0}]},{"code":231,"indent":1,"parameters":[1,"Chapter01_0514b6",0,0,0,0,50,50,255,0]},{"code":230,"indent":1,"parameters":[60]},{"code":222,"indent":1,"parameters":[]},{"code":101,"indent":1,"parameters":["",0,0,0,"{actors[4].name}"]},{"code":401,"indent":1,"parameters":["{CommonEvents.Pick_a_act.[13]}"]},{"code":230,"indent":1,"parameters":[60]},{"code":250,"indent":1,"parameters":[{"name":"Explosion2","volume":90,"pitch":100,"pan":0}]},{"code":231,"indent":1,"parameters":[2,"Chapter01_0514b7",0,0,0,0,50,50,255,0]},{"code":230,"indent":1,"parameters":[30]},{"code":101,"indent":1,"parameters":["",0,0,0,"{actors[4].name}"]},{"code":401,"indent":1,"parameters":["{CommonEvents.Pick_a_act.[14]}"]},{"code":101,"indent":1,"parameters":["",0,0,0,"{actors[4].name}"]},{"code":401,"indent":1,"parameters":["{CommonEvents.Pick_a_act.[15]}"]},{"code":230,"indent":1,"parameters":[60]},{"code":221,"indent":1,"parameters":[]},{"code":101,"indent":1,"parameters":["",0,0,2,"{actors[4].name}"]},{"code":401,"indent":1,"parameters":["\\F[rin_smiling]{CommonEvents.Pick_a_act.[16]}"]},{"code":102,"indent":1,"parameters":[["{CommonEvents.Pick_a_act.[23]}","{CommonEvents.Pick_a_act.[24]}","{CommonEvents.Pick_a_act.[25]}"],-1,0,2,0]},{"code":402,"indent":1,"parameters":[0,"{CommonEvents.Pick_a_act.[23]}"]},{"code":101,"indent":2,"parameters":["",0,0,2,"{actors[4].name}"]},{"code":401,"indent":2,"parameters":["\\F[rin_smirking]{CommonEvents.Pick_a_act.[17]}"]},{"code":0,"indent":2,"parameters":[]},{"code":402,"indent":1,"parameters":[1,"{CommonEvents.Pick_a_act.[24]}"]},{"code":101,"indent":2,"parameters":["",0,0,2,"{actors[4].name}"]},{"code":401,"indent":2,"parameters":["\\F[rin_thinking]{CommonEvents.Pick_a_act.[18]}"]},{"code":0,"indent":2,"parameters":[]},{"code":402,"indent":1,"parameters":[2,"{CommonEvents.Pick_a_act.[25]}"]},{"code":101,"indent":2,"parameters":["",0,0,2,"{actors[4].name}"]},{"code":401,"indent":2,"parameters":["\\F[rin_smirking]{CommonEvents.Pick_a_act.[19]}"]},{"code":101,"indent":2,"parameters":["",0,0,2,"{actors[4].name}"]},{"code":401,"indent":2,"parameters":["\\F[rin_smirking]{CommonEvents.Pick_a_act.[20]}"]},{"code":0,"indent":2,"parameters":[]},{"code":404,"indent":1,"parameters":[]},{"code":0,"indent":1,"parameters":[]},{"code":412,"indent":0,"parameters":[]},{"code":111,"indent":0,"parameters":[0,51,1]},{"code":121,"indent":1,"parameters":[51,51,0]},{"code":101,"indent":1,"parameters":["",0,1,2,""]},{"code":401,"indent":1,"parameters":["{CommonEvents.Pick_a_act.[21]}"]},{"code":313,"indent":1,"parameters":[0,4,0,37]},{"code":0,"indent":1,"parameters":[]},{"code":412,"indent":0,"parameters":[]},{"code":235,"indent":0,"parameters":[1]},{"code":235,"indent":0,"parameters":[2]},{"code":235,"indent":0,"parameters":[3]},{"code":222,"indent":0,"parameters":[]},{"code":117,"indent":0,"parameters":[87]},{"code":0,"indent":0,"parameters":[]}],"name":"Pick.a.act","switchId":1,"trigger":0},
{"id":87,"list":[{"code":339,"indent":0,"parameters":[1,4,260,-2]},{"code":0,"indent":0,"parameters":[]}],"name":"Pick.a.damage","switchId":1,"trigger":0},
{"id":88,"list":[{"code":0,"indent":0,"parameters":[]}],"name":"","switchId":1,"trigger":0},
{"id":89,"list":[{"code":230,"indent":0,"parameters":[60]},{"code":221,"indent":0,"parameters":[]},{"code":231,"indent":0,"parameters":[1,"Chapter01_0514c1",0,0,0,0,50,50,255,0]},{"code":101,"indent":0,"parameters":["",0,0,2,"{actors[4].name}"]},{"code":401,"indent":0,"parameters":["\\F[rin_standard]{CommonEvents.Armies1_Ends.[0]}"]},{"code":230,"indent":0,"parameters":[60]},{"code":222,"indent":0,"parameters":[]},{"code":101,"indent":0,"parameters":["",0,0,0,"{actors[4].name}"]},{"code":401,"indent":0,"parameters":["{CommonEvents.Armies1_Ends.[1]}"]},{"code":231,"indent":0,"parameters":[2,"Chapter01_0514c2",0,0,0,0,50,50,255,0]},{"code":101,"indent":0,"parameters":["",0,0,0,"{actors[4].name}"]},{"code":401,"indent":0,"parameters":["{CommonEvents.Armies1_Ends.[2]}"]},{"code":230,"indent":0,"parameters":[60]},{"code":250,"indent":0,"parameters":[{"name":"Explosion4","volume":90,"pitch":100,"pan":0}]},{"code":231,"indent":0,"parameters":[1,"Chapter01_0514c3",0,0,0,0,50,50,255,0]},{"code":235,"indent":0,"parameters":[2]},{"code":230,"indent":0,"parameters":[120]},{"code":101,"indent":0,"parameters":["",0,0,0,"{actors[4].name}"]},{"code":401,"indent":0,"parameters":["{CommonEvents.Armies1_Ends.[3]}"]},{"code":221,"indent":0,"parameters":[]},{"code":231,"indent":0,"parameters":[1,"Chapter01_0514c4",0,0,0,0,50,50,255,0]},{"code":230,"indent":0,"parameters":[60]},{"code":222,"indent":0,"parameters":[]},{"code":101,"indent":0,"parameters":["",0,0,0,"{actors[4].name}"]},{"code":401,"indent":0,"parameters":["{CommonEvents.Armies1_Ends.[4]}"]},{"code":101,"indent":0,"parameters":["",0,0,0,"{actors[4].name}"]},{"code":401,"indent":0,"parameters":["{CommonEvents.Armies1_Ends.[5]}"]},{"code":101,"indent":0,"parameters":["",0,0,0,"{actors[4].name}"]},{"code":401,"indent":0,"parameters":["{CommonEvents.Armies1_Ends.[6]}"]},{"code":221,"indent":0,"parameters":[]},{"code":235,"indent":0,"parameters":[1]},{"code":230,"indent":0,"parameters":[60]},{"code":222,"indent":0,"parameters":[]},{"code":333,"indent":0,"parameters":[-1,0,1]},{"code":0,"indent":0,"parameters":[]}],"name":"Armies1.Ends","switchId":1,"trigger":0},
{"id":90,"list":[{"code":0,"indent":0,"parameters":[]}],"name":"","switchId":1,"trigger":0},
{"id":91,"list":[{"code":0,"indent":0,"parameters":[]}],"name":"","switchId":1,"trigger":0},
{"id":92,"list":[{"code":0,"indent":0,"parameters":[]}],"name":"","switchId":1,"trigger":0},
{"id":93,"list":[{"code":0,"indent":0,"parameters":[]}],"name":"","switchId":1,"trigger":0},
{"id":94,"list":[{"code":0,"indent":0,"parameters":[]}],"name":"","switchId":1,"trigger":0},
{"id":95,"list":[{"code":0,"indent":0,"parameters":[]}],"name":"","switchId":1,"trigger":0},
{"id":96,"list":[{"code":0,"indent":0,"parameters":[]}],"name":"","switchId":1,"trigger":0},
{"id":97,"list":[{"code":0,"indent":0,"parameters":[]}],"name":"","switchId":1,"trigger":0},
{"id":98,"list":[{"code":0,"indent":0,"parameters":[]}],"name":"","switchId":1,"trigger":0},
{"id":99,"list":[{"code":0,"indent":0,"parameters":[]}],"name":"","switchId":1,"trigger":0},
{"id":100,"list":[{"code":0,"indent":0,"parameters":[]}],"name":"","switchId":1,"trigger":0}
]