{
"autoplayBgm":false,"autoplayBgs":false,"battleback1Name":"Road1","battleback2Name":"Fort1","bgm":{"name":"","pan":0,"pitch":100,"volume":90},"bgs":{"name":"","pan":0,"pitch":100,"volume":90},"disableDashing":false,"displayName":"","encounterList":[],"encounterStep":30,"height":33,"note":"","parallaxLoopX":false,"parallaxLoopY":false,"parallaxName":"","parallaxShow":true,"parallaxSx":0,"parallaxSy":0,"scrollType":0,"specifyBattleback":true,"tilesetId":2,"width":25,
"data":[7616,7616,7616,7616,7640,2832,2816,2816,2816,2816,2816,2816,2816,2816,2816,2816,2816,2816,2816,2816,2840,7632,7616,7616,7616,7616,7616,7616,7616,7640,2832,2816,2816,2816,2816,2816,2816,2816,2816,2816,2816,2816,2816,2816,2816,2840,7632,7616,7616,7616,7616,7616,7620,7644,7654,2832,2816,2816,2816,2816,2816,2816,2816,2816,2816,2816,2816,2816,2816,2816,2840,7656,7624,7616,7616,7620,7644,7654,8002,8006,2832,2816,2816,2816,2816,2816,2816,2816,2816,2816,2816,2816,2816,2816,2816,2840,8003,7656,7624,7616,7640,8003,8006,8008,8012,2832,2816,2816,2816,2816,2816,2816,2816,2816,2816,2816,2816,2816,2816,2816,2840,8009,8003,7656,7624,7640,8008,8012,2859,2849,2845,2844,2844,2844,2844,2844,2844,2844,2844,2844,2844,2844,2844,2844,2844,2846,2861,8009,8002,7632,7640,2858,6066,6052,6052,6052,6052,6052,6052,6053,6065,6054,6052,6053,6065,6054,6052,6052,6052,6052,6052,6052,6068,8008,7632,7640,2848,6048,6032,6032,6032,6036,6060,6060,6060,6174,6072,6060,6070,6174,6060,6060,6060,6060,6060,6060,6040,6056,2858,7632,7654,2848,6048,6032,6032,6032,6056,6419,6418,6418,6422,6418,6422,6418,6419,6418,6418,6418,6418,6418,6418,6048,6056,2848,7632,8006,2848,6048,6036,6060,6060,6070,6417,6416,6416,6416,6416,6416,6416,6416,6416,6416,6416,6416,6416,6416,6048,6056,2836,7632,8012,2848,6048,6056,6418,6419,6422,6424,6424,6424,6424,6428,6424,6424,6424,6424,6424,6424,6424,6424,6424,6048,6056,2840,1640,2836,2842,6048,6056,6416,6416,6420,1569,1569,1569,1569,1562,1562,1562,1569,1569,1569,1569,1569,1569,1569,6048,6056,2848,8003,2816,2840,6048,6056,6424,6424,6428,1569,1569,1569,1569,1562,1562,1562,1569,1569,1569,1569,1569,1569,1569,6048,6056,2848,8009,2816,2840,6048,6056,1569,1569,1569,1569,1569,1569,1569,1562,1562,1562,1569,1569,1569,1569,1569,1569,1569,6048,6056,2833,2836,2816,2840,6048,6056,1569,1569,3774,1569,1569,1569,1569,1562,1562,1562,1569,1569,1569,1569,3774,1569,1569,6048,6056,2832,2816,2816,2840,6048,6056,1569,1569,1569,1569,1569,1569,1569,1562,1562,1562,1569,1569,1569,1569,1569,1569,1569,6048,6056,2832,2816,2816,2840,6048,6056,1569,1569,1569,1569,1569,1569,1569,1562,1562,1562,1569,1569,1569,1569,6066,6052,6052,6033,6056,2832,2816,2844,2841,6048,6056,1569,1569,1569,1569,1569,1569,1569,1562,1562,1562,1569,1569,1569,1569,6048,6032,6032,6032,6056,2832,2816,3008,2848,6048,6034,6052,6052,6052,6052,6052,6052,6174,1562,1562,1562,6174,6052,6052,6052,6033,6032,6032,6032,6056,2832,2816,7640,2848,6072,6060,6060,6060,6060,6060,6060,6042,6068,1562,1562,1562,6066,6068,6060,6060,6060,6060,6060,6060,6070,2832,2816,7640,2848,6419,6418,6418,6418,6418,6418,6422,6048,6056,1562,1562,1562,6048,6056,6419,6418,6418,6418,6418,6418,6423,2834,2844,7640,2848,6417,6416,6416,6416,6416,6416,6420,6072,6070,1562,1562,1562,6072,6070,6417,6416,6416,6416,6416,6416,6420,2848,1632,7640,2848,6425,6424,6424,6424,6424,6424,6428,6523,6526,1562,1562,1562,6523,6526,6425,6424,6424,6424,6424,6424,6428,2848,1632,7640,2833,2836,2836,2836,2836,2836,2836,2852,1569,1569,1562,1562,1562,1569,1569,2850,2836,2836,2836,2836,2836,2836,2842,1632,7640,2832,2816,2816,2816,2816,2816,2816,2840,1569,1569,1562,1562,1562,1569,1569,2832,2816,2816,2816,2816,2816,2816,2840,1632,7640,2832,2816,2816,2820,2844,2844,2844,2854,1562,1562,1562,1562,1562,1562,1562,2856,2844,2844,2844,2824,2816,2816,2840,1632,7640,2856,2824,2820,2854,1644,1641,1641,1641,1562,1562,1562,1562,1562,1562,1562,1641,1641,1641,1643,2856,2824,2820,2854,1632,7618,7652,2832,2840,1644,1642,1657,1657,1657,6523,6522,1600,1601,1602,6522,6526,1657,1657,1657,1640,1643,2834,2854,2844,7636,7616,7640,2856,2826,2852,1658,2850,2836,2836,2852,3774,1600,1601,1602,3774,2850,2836,2836,2852,1656,1632,2860,2844,7617,7616,7616,7618,7652,2856,2846,2849,2845,2824,2816,2822,2861,1562,1562,1562,2859,2825,2816,2816,2822,2849,2861,7650,7617,7616,7616,7616,7616,7618,7636,7636,7636,7652,2832,2816,2840,3774,1562,1562,1562,3774,2832,2816,2820,2854,7650,7636,7617,7616,7616,7616,7644,7644,7644,7644,7644,7644,7654,2832,2816,2822,2861,1562,1562,1562,2859,2825,2816,2840,7659,7645,7644,7644,7644,7644,7644,2849,2849,2849,2849,2849,2849,2849,2845,2844,2841,3774,1562,1562,1562,3774,2834,2844,2846,2838,2836,2836,2836,2836,2836,2836,0,0,0,0,0,3024,3008,3008,3008,3008,3008,3008,3008,3008,3008,3008,3008,3008,3008,3032,0,0,0,0,0,0,0,0,0,0,3024,3008,3008,3008,3008,3008,3008,3008,3008,3008,3008,3008,3008,3008,3032,0,0,0,0,0,3028,3028,3029,3041,3041,3021,3036,3036,3036,3036,3036,3036,3036,3036,3036,3036,3036,3036,3036,3046,0,3051,3030,3028,3028,3012,3036,3046,0,0,3052,0,0,0,0,0,0,0,0,0,0,0,0,0,0,0,0,3048,3016,3008,3032,0,0,0,0,3147,3137,3137,3137,3137,3137,3137,3137,3137,3137,3137,3137,3137,3137,3137,3149,0,0,3048,3016,3032,0,0,3042,3028,3028,3028,3028,3044,0,0,0,0,0,0,0,3042,3028,3028,3028,3028,3044,0,0,3024,3032,0,0,0,0,0,0,0,0,0,0,0,0,0,0,0,0,0,0,0,0,0,0,0,3024,3032,0,0,0,0,0,0,0,0,0,0,0,0,0,0,0,0,0,0,0,0,0,0,0,3024,3046,0,0,0,0,0,0,0,0,0,0,0,0,0,0,0,0,0,0,0,0,0,0,0,3024,0,3050,0,0,0,0,0,0,0,0,0,0,0,0,0,0,0,0,0,0,0,0,0,3028,3017,0,3040,0,0,0,0,0,0,0,0,0,0,0,0,0,0,0,0,0,0,0,0,0,3046,3048,3028,3034,0,0,0,0,0,0,0,0,0,0,0,0,0,0,0,0,0,0,0,0,0,0,0,3012,3046,0,0,0,0,0,0,0,0,0,0,0,0,0,0,0,0,0,0,0,0,0,0,0,3032,0,0,0,0,0,0,0,0,0,0,0,0,0,0,0,0,0,0,0,0,0,0,0,3042,3032,0,0,0,0,0,0,0,0,0,0,0,0,0,0,0,0,0,0,0,0,0,0,3042,3009,3032,0,0,0,0,0,0,0,0,0,0,0,0,0,0,0,0,0,0,0,0,0,0,3048,3016,3010,3044,0,0,0,0,0,0,0,0,0,0,0,0,0,0,0,0,0,0,0,0,0,0,3048,3008,3032,0,0,0,0,0,0,0,0,0,0,0,0,0,0,0,0,0,0,0,0,0,0,0,3044,3046,0,0,0,0,0,0,0,0,0,0,0,0,0,0,0,0,0,0,0,0,0,0,0,3032,0,0,0,0,0,0,0,0,0,0,0,0,0,0,0,0,0,0,0,0,0,0,0,0,3032,0,0,0,0,0,0,0,0,0,0,0,0,0,0,0,0,0,0,0,0,0,0,0,1624,3032,0,0,0,0,0,0,0,0,0,0,0,0,0,0,0,0,0,0,0,0,0,0,0,0,3032,0,0,0,0,0,0,0,0,0,0,0,0,0,0,0,0,0,0,0,0,0,0,0,0,3032,3028,3028,3013,3036,3036,3036,3036,3033,0,0,0,0,0,0,0,3048,3036,3036,3036,3036,3018,3028,3044,0,3032,3036,3036,3046,3147,3137,3137,3149,3052,0,0,0,0,0,0,0,0,3147,3137,3137,3149,3048,3016,3032,0,3032,0,0,0,0,0,0,0,0,0,0,0,0,0,0,0,0,0,0,0,0,0,3048,3046,0,3032,3147,3137,3137,3149,0,0,0,0,0,0,0,0,0,0,0,0,0,0,0,3147,3137,3137,3149,0,3010,3028,3028,3044,0,0,0,0,0,0,0,0,0,0,0,0,0,0,0,0,0,0,0,1624,3028,3008,3008,3008,3010,3044,0,3050,0,3146,3050,0,0,0,0,0,3050,3146,3042,3044,0,0,0,1624,3009,3008,3008,3008,3008,3008,3010,3028,3011,3044,3136,3027,3053,0,0,0,0,3040,3136,3024,3010,3028,3028,3028,3009,3008,3008,3008,3008,3008,3008,3008,3008,3012,3046,3136,3040,0,0,0,0,0,3040,3136,3024,3008,3008,3008,3008,3008,3008,3008,3036,3036,3036,3036,3036,3036,3046,0,3136,3027,3053,0,0,0,3051,3035,3136,3048,3036,3036,3036,3036,3036,3036,3036,0,0,0,0,0,0,0,0,3148,3040,0,0,0,0,0,3040,3148,0,0,0,0,0,0,0,0,0,0,0,0,0,0,0,0,0,0,0,0,0,0,0,0,0,0,0,0,0,0,0,0,0,0,0,0,0,0,0,0,0,0,0,0,0,0,0,0,0,0,0,0,0,0,0,0,0,0,176,177,0,0,0,0,0,0,0,0,0,0,0,0,0,0,0,0,0,0,0,0,185,184,185,184,0,0,0,0,0,0,0,0,0,0,0,0,0,0,0,0,0,0,0,0,0,0,0,0,0,0,0,0,0,0,0,0,0,0,0,0,0,0,0,0,0,0,0,0,0,0,0,0,0,0,0,0,0,0,0,0,0,0,0,0,0,0,0,0,0,0,0,0,0,0,0,0,0,0,0,0,0,0,0,0,0,0,0,0,0,0,0,0,0,0,0,0,0,0,0,0,0,0,0,0,0,0,0,0,0,0,0,0,0,0,0,0,0,0,0,0,0,0,0,0,0,0,0,0,0,456,0,0,0,0,0,0,0,0,0,0,0,0,0,0,0,0,0,0,0,0,0,0,0,0,464,0,0,0,0,0,0,0,0,0,0,0,0,0,0,0,0,0,0,0,0,0,465,0,0,0,0,0,0,0,0,0,0,0,0,0,0,0,0,0,0,0,0,0,0,0,0,0,0,0,0,0,0,0,0,0,0,0,0,0,0,0,0,0,0,0,0,0,0,0,0,0,0,0,0,0,0,0,0,0,0,0,0,0,0,0,0,0,0,0,0,0,0,0,0,0,0,0,0,0,0,0,0,0,0,0,0,0,0,0,0,0,0,0,0,0,0,0,0,0,0,0,0,0,0,0,0,0,0,0,0,0,0,0,0,0,0,0,0,0,0,0,0,0,0,0,0,0,0,0,0,0,0,0,0,0,0,0,0,0,0,0,0,0,0,0,0,0,0,0,0,0,0,0,0,0,0,0,0,0,0,0,0,0,0,0,0,0,0,0,0,0,0,0,0,0,0,0,0,0,0,0,0,0,0,0,0,0,0,0,0,0,0,0,0,0,0,0,0,0,0,0,0,0,1626,0,0,0,0,0,0,0,0,0,0,0,0,0,0,0,0,0,0,0,0,0,0,0,0,0,0,0,0,0,0,0,0,0,0,0,0,0,0,0,0,0,0,0,0,0,0,0,0,0,0,448,449,0,0,0,0,0,0,0,0,0,0,0,0,0,0,0,0,0,0,0,448,449,176,0,448,0,0,0,0,0,0,105,0,0,0,0,0,0,0,0,0,105,0,0,0,0,0,0,0,448,449,0,0,0,0,0,0,0,0,0,0,0,0,0,0,0,0,0,0,63,448,457,0,0,0,465,0,0,0,0,0,0,0,449,0,0,0,448,0,0,0,0,0,0,0,464,155,0,0,0,0,0,0,0,0,0,0,0,0,0,0,0,0,0,0,0,0,0,0,0,0,0,0,0,0,0,0,0,0,0,0,0,0,261,0,0,0,261,0,0,0,0,0,0,0,0,0,0,185,0,0,0,0,0,0,0,0,0,0,0,0,0,0,0,0,0,0,0,0,0,0,0,0,184,185,184,185,0,0,0,0,0,0,0,0,0,0,0,0,0,0,0,0,0,0,0,176,184,176,184,185,184,185,0,0,0,0,0,0,0,0,0,0,0,0,0,0,0,0,0,176,184,185,184,185,184,185,184,185,0,0,0,0,0,0,0,0,0,0,0,0,184,185,184,185,184,185,184,176,184,185,184,185,184,185,0,0,0,0,0,0,0,0,0,0,0,185,184,185,184,185,184,185,184,185,184,185,184,185,184,0,0,0,0,0,0,0,0,0,0,0,184,185,184,185,184,185,184,0,0,0,0,0,0,0,0,0,0,0,0,0,0,0,0,0,0,0,0,0,0,0,0,0,186,187,186,187,185,176,178,179,178,179,178,179,178,179,178,179,178,179,178,179,177,184,179,178,179,178,179,178,179,177,184,186,187,186,187,186,187,186,187,186,187,186,187,186,187,185,176,187,186,187,186,187,185,184,185,176,178,179,178,179,178,179,178,179,178,179,178,179,178,179,177,184,176,177,176,177,185,0,0,0,184,185,184,185,184,185,184,185,184,185,184,185,184,185,184,185,0,184,185,184,185,432,433,0,0,0,0,0,0,0,0,0,0,0,0,0,0,0,0,0,0,0,432,433,176,177,440,441,0,155,0,64,153,0,0,0,0,0,0,0,0,0,155,155,153,0,0,440,441,184,185,448,476,0,0,0,0,0,0,0,0,0,0,0,0,0,0,0,0,0,0,0,477,449,176,177,448,0,0,0,0,0,0,0,0,0,0,0,0,0,0,0,0,0,0,0,0,0,449,184,185,448,0,0,0,0,0,18,0,60,352,0,0,0,352,61,0,0,0,60,0,0,0,449,176,0,153,0,0,0,0,0,26,0,0,360,0,0,0,360,0,5,6,7,0,52,0,0,153,184,0,0,0,0,352,0,352,26,53,0,261,0,0,0,261,0,13,14,15,0,60,0,0,0,0,0,155,0,0,360,0,360,181,0,150,269,0,0,0,269,150,21,22,23,141,141,0,0,0,0,153,0,0,0,0,134,8,0,0,150,0,0,0,0,0,150,0,0,8,0,0,0,0,0,0,0,0,0,0,0,0,16,0,0,149,138,0,0,0,149,149,0,0,16,0,0,0,0,0,0,0,0,0,0,0,0,24,0,0,0,0,0,0,0,0,0,0,0,24,0,0,0,0,155,153,155,0,0,0,0,0,0,0,0,149,149,0,0,0,138,149,0,0,0,0,0,0,0,0,155,0,0,0,0,0,0,0,0,0,150,0,0,0,0,0,150,0,0,0,0,0,0,0,0,0,153,155,0,0,180,180,5,6,7,150,261,0,0,0,261,150,0,0,0,0,0,0,0,0,0,3044,432,433,0,0,0,0,0,0,0,0,0,0,0,0,0,0,0,0,0,0,0,432,433,0,177,440,441,0,0,0,0,0,0,0,0,0,0,0,0,0,0,0,0,0,0,0,440,441,0,185,456,457,0,60,0,64,0,0,0,0,0,0,0,0,0,0,0,0,0,64,0,456,457,0,177,64,449,0,105,0,105,0,51,0,0,0,0,0,0,0,105,0,49,0,105,0,448,449,184,185,456,457,56,0,0,52,0,59,0,352,0,0,0,352,0,0,56,57,0,0,56,456,152,176,177,464,153,0,155,155,153,0,0,448,360,0,0,0,360,449,0,155,0,155,155,0,153,465,184,185,0,155,153,0,0,0,0,155,448,449,0,0,0,448,449,0,0,0,0,0,0,153,0,176,177,0,0,0,0,0,0,0,0,464,465,0,0,0,464,465,0,0,0,0,0,0,0,64,184,176,177,176,177,0,0,0,0,0,0,269,0,0,0,269,0,0,0,0,0,0,0,0,0,176,177,176,177,176,177,0,0,0,0,0,0,0,0,0,0,0,0,0,0,0,0,0,0,0,177,185,177,176,177,176,177,0,0,0,0,0,0,0,0,0,0,0,0,176,177,176,177,0,177,176,177,176,177,176,177,176,177,0,0,0,0,0,0,0,0,0,0,176,177,176,177,176,177,176,177,185,177,176,177,176,177,176,177,0,0,0,0,0,0,0,0,0,184,176,177,176,177,176,177,176,177,176,177,176,177,176,177,185,0,0,0,0,0,0,0,0,0,176,177,176,177,176,177,176,177,186,178,179,178,179,178,179,177,0,0,0,0,0,0,0,0,0,184,179,178,179,178,179,178,179,0,0,0,0,0,0,0,0,0,0,0,0,0,0,0,0,0,0,0,0,0,0,0,0,0,0,0,0,0,0,5,0,0,0,0,0,0,0,0,0,0,0,0,0,0,0,0,0,0,0,0,0,0,0,0,5,0,0,0,0,0,0,0,0,0,0,0,0,0,0,0,0,0,0,0,0,0,0,0,0,5,0,0,0,0,0,0,0,0,0,0,0,0,0,0,0,0,0,0,0,0,0,0,5,0,5,0,0,0,0,0,0,0,0,0,0,0,0,0,0,0,0,0,0,0,0,0,0,5,0,0,0,0,0,0,0,0,0,0,0,0,0,0,0,0,0,0,0,0,0,0,5,0,0,0,0,0,0,0,0,0,0,0,0,0,0,0,0,0,0,0,0,0,0,0,0,5,0,0,0,0,0,0,0,0,0,0,0,0,0,0,0,0,0,0,0,0,0,5,0,0,5,0,0,0,0,0,5,0,0,0,0,0,0,0,0,0,0,0,0,0,0,0,5,0,0,5,0,0,0,0,0,5,0,0,0,0,0,0,0,0,0,0,0,0,0,0,0,5,0,0,1,0,0,5,0,0,5,0,0,0,0,0,0,0,0,0,0,0,0,0,0,0,5,0,0,0,0,0,5,0,0,5,4,0,0,0,0,0,0,0,0,0,0,0,0,0,0,5,0,0,0,0,0,5,0,0,5,0,0,0,0,0,0,0,0,0,0,0,0,0,0,0,5,0,0,0,0,0,5,0,0,0,0,0,0,0,0,0,0,0,0,0,0,0,0,0,0,5,0,0,0,0,0,5,0,0,0,0,0,0,0,0,0,0,0,0,0,0,0,0,0,0,5,0,0,0,0,0,5,0,0,0,0,0,0,0,0,0,0,0,0,0,0,0,0,0,0,5,0,0,0,0,0,5,0,0,0,0,0,0,0,0,0,0,0,0,0,0,0,0,0,0,5,0,0,0,0,0,5,0,0,0,0,0,0,0,0,0,0,0,0,0,0,0,0,0,0,5,0,0,0,0,0,0,0,0,0,0,0,0,0,0,0,0,0,0,0,0,0,0,0,0,5,0,0,5,0,0,0,0,0,0,0,0,0,5,0,0,0,0,0,0,0,0,0,0,0,5,0,0,5,0,0,0,0,0,0,0,0,0,5,0,0,0,0,5,0,0,0,0,0,0,5,0,0,5,0,0,0,0,0,0,0,0,0,5,0,0,0,0,5,0,0,0,0,0,0,0,0,0,5,0,0,0,0,0,0,0,0,0,5,0,0,0,0,5,0,0,0,0,0,0,5,0,0,5,0,0,0,0,0,0,0,0,0,0,0,0,0,0,5,0,0,0,0,0,0,0,0,0,5,0,0,0,0,0,0,0,0,0,0,0,0,0,0,5,0,0,0,0,0,0,0,0,0,5,0,0,0,0,0,0,0,0,0,0,0,0,0,0,0,0,0,0,0,0,0,0,0,0,5,0,0,0,0,0,0,0,0,0,0,0,0,0,0,0,0,0,0,0,0,0,0,0,0,0,0,0,0,0,5,0,0,0,0,0,0,0,5,0,0,0,0,0,0,0,0,0,0,0,0,5,0,0,0,1,0,0,0,0,0,0,0,5,0,0,0,0,0,0,0,0,0,0,0,0,0,0,0,0,0,0,0,0,0,0,0,0,0,0,0,0,0,0,0,0,0,0,0,0,0,0,0,0,0,0,0,0,0,0,0,0,0,0,0,0,0,0,0,0,0,0,0,0,0,0,0,0,0,0,0,5,0,0,0,0,0,0,0,0,0,0,0,0,0,0,0,0,0,0,0,0,0,0,0,0,0,0,0,0,0,0,0,0,0,0,0,0,0,0,0,0,0,0,0,0,0,0,0,0,0,0,0,0,0,0,0,0,0,0,0,0,0,0,0,0,0,0,0,0,0,0,0,0,0,0,0,0,0,0,0,0,0,0,0,0,0,0,0,0,0,0,0,0,0,0,0,0,0,0,0,0,0,0,0,0,0,0,0,0,0,0,0,0,0,0,0,0,0,0,0,0,0,0,0,0,0,0,0,0,0,0,0,0,0,0,0,0,0,0,0,0,0,0,0,0,0,0,0,0,0,0,0,0,0,0,0,0,0,0,0,0,0,0,0,0,0,0,0,0,0,0,0,0,0,0,0,0,0,0,0,0,0,0,0,0,0,0,0,0,0,0,0,0,0,0,0,0,0,0,0,0,0,0,0,0,0,0,0,0,0,0,0,0,0,0,0,0,0,0,0,0,0,0,0,0,0,0,0,0,0,0,0,0,0,0,0,0,0,0,0,0,0,0,0,0,0,0,0,0,0,0,0,0,0,0,0,0,0,0,0,0,0,0,0,0,0,0,0,0,0,0,0,0,0,0,0,0,0,0,0,0,0,0,0,0,0,0,0,0,0,0,0,0,0,0,0,0,0,0,0,0,0,0,0,0,0,0,0,0,0,0,0,0,0,0,0,0,0,0,0,0,0,0,0,0,0,0,0,0,0,0,0,0,0,0,0,0,0,0,0,0,0,0,0,0,0,0,0,0,0,0,0,0,0,0,0,0,0,0,0,0,0,0,0,0,0,0,0,0,0,0,0,0,0,0,0,0,0,0,0,0,0,0,0,0,0,0,0,0,0,0,0,0,0,0,0,0,0,0,0,0,0,0,0,0,0,0,0,0,0,0,0,0,0,0,0,0,0,0,0,0,0,0,0,0,0,0,0,0,0,0,0,0,0,0,0,0,0,0,0,0,0,0,0,0,0,0,0,0,0,0,0,0,0,0,0,0,0,0,0,0,0,0,0,0,0,0,0,0,0,0,0,0,0,0,0,0,0,0,0,0,0,0,0,0,0,0,0,0,0,0,0,0,0,0,0,0,0,0,0,0,0,0,0,0,0,0,0,0,0,0,0,0,0,0,0,0,0,0,0,0,0,0,0,0,0,0,0,0,0,0,0,0,0,0,0,0,0,0,0,0,0,0,0,0,0,0,0,0,0,0,0,0,0,0,0,0,0,0,0,0,0,0,0,0,0,0,0,0,0,0,0,0,0,0,0,0,0,0,0,0,0,0,0,0,0,0,0,0,0,0,0,0,0,0,0,0,0,0,0,0,0,0,0,0,0,0,0,0,0,0,0,0,0,0,0,0,0,0,0,0,0,0,0,0,0,0,0,0,0,0,0,0,0,0,0,0,0,0,0,0,0,0,0,0,0,0,0,0,0,0,0,0,0,0,0,0,0,0,0,0,0,0,0,0,0,0,0,0,0,0,0,0,0,0,0,0,0,0,0,0,0,0,0,0,0,0,0,0,0,0,0,0,0,0,0,0,0,0,0,0,0,0,0,0,0,0,0,0,0,0,0,0,0,0,0,0,0,0,0,0,0,0,0,0,0,0,0,0,0,0,0,0,0,0,0,0,0,0,0,0,0,0,0,0,0,0,0,0,0,0,0,0,0,0,0,0,0,0,0,0,0,0,0,0,0,0,0,0,0,0,0,0,0,0,0,0,0,0,0,0,0,0,0,0,0,0,0,0,0,0,0,0,0,0,0,0,0,0,0,0,0,0,0,0,0,0,0,0,0,0,0,0,0,0,0,0,0,0,0,0,0,0,0,0,0,0,0,0,0,0,0,0,0,0,0,0,0,0,0,0,0,0,0,0,0,0,0,0,0,0,0,0,0,0,0,0,0,0,0,0,0,0,0,0,0,0,0],
"events":[
null,
{"id":1,"name":"EV001","note":"","pages":[{"conditions":{"actorId":1,"actorValid":false,"itemId":1,"itemValid":false,"selfSwitchCh":"A","selfSwitchValid":false,"switch1Id":1,"switch1Valid":false,"switch2Id":1,"switch2Valid":false,"variableId":1,"variableValid":false,"variableValue":0},"directionFix":false,"image":{"tileId":0,"characterName":"!Door1","direction":2,"pattern":2,"characterIndex":3},"list":[{"code":0,"indent":0,"parameters":[]}],"moveFrequency":3,"moveRoute":{"list":[{"code":0,"parameters":[]}],"repeat":true,"skippable":false,"wait":false},"moveSpeed":3,"moveType":0,"priorityType":1,"stepAnime":false,"through":false,"trigger":0,"walkAnime":true}],"x":5,"y":12},
{"id":2,"name":"EV002","note":"","pages":[{"conditions":{"actorId":1,"actorValid":false,"itemId":1,"itemValid":false,"selfSwitchCh":"A","selfSwitchValid":false,"switch1Id":1,"switch1Valid":false,"switch2Id":1,"switch2Valid":false,"variableId":1,"variableValid":false,"variableValue":0},"directionFix":false,"image":{"tileId":0,"characterName":"!Other2","direction":2,"pattern":0,"characterIndex":7},"list":[{"code":0,"indent":0,"parameters":[]}],"moveFrequency":3,"moveRoute":{"list":[{"code":0,"parameters":[]}],"repeat":true,"skippable":false,"wait":false},"moveSpeed":3,"moveType":0,"priorityType":1,"stepAnime":true,"through":false,"trigger":0,"walkAnime":false}],"x":19,"y":17},
{"id":3,"name":"EV003","note":"","pages":[{"conditions":{"actorId":1,"actorValid":false,"itemId":1,"itemValid":false,"selfSwitchCh":"A","selfSwitchValid":false,"switch1Id":1,"switch1Valid":false,"switch2Id":1,"switch2Valid":false,"variableId":1,"variableValid":false,"variableValue":0},"directionFix":false,"image":{"tileId":0,"characterName":"!Other2","direction":2,"pattern":0,"characterIndex":7},"list":[{"code":0,"indent":0,"parameters":[]}],"moveFrequency":3,"moveRoute":{"list":[{"code":0,"parameters":[]}],"repeat":true,"skippable":false,"wait":false},"moveSpeed":3,"moveType":0,"priorityType":1,"stepAnime":true,"through":false,"trigger":0,"walkAnime":false}],"x":5,"y":8},
{"id":4,"name":"EV004","note":"","pages":[{"conditions":{"actorId":1,"actorValid":false,"itemId":1,"itemValid":false,"selfSwitchCh":"A","selfSwitchValid":false,"switch1Id":1,"switch1Valid":false,"switch2Id":1,"switch2Valid":false,"variableId":1,"variableValid":false,"variableValue":0},"directionFix":false,"image":{"tileId":0,"characterName":"!Flame","direction":2,"pattern":0,"characterIndex":0},"list":[{"code":0,"indent":0,"parameters":[]}],"moveFrequency":3,"moveRoute":{"list":[{"code":0,"parameters":[]}],"repeat":true,"skippable":false,"wait":false},"moveSpeed":3,"moveType":0,"priorityType":1,"stepAnime":true,"through":false,"trigger":0,"walkAnime":false}],"x":6,"y":12},
{"id":5,"name":"EV005","note":"","pages":[{"conditions":{"actorId":1,"actorValid":false,"itemId":1,"itemValid":false,"selfSwitchCh":"A","selfSwitchValid":false,"switch1Id":1,"switch1Valid":false,"switch2Id":1,"switch2Valid":false,"variableId":1,"variableValid":false,"variableValue":0},"directionFix":false,"image":{"tileId":0,"characterName":"!Flame","direction":2,"pattern":0,"characterIndex":0},"list":[{"code":0,"indent":0,"parameters":[]}],"moveFrequency":3,"moveRoute":{"list":[{"code":0,"parameters":[]}],"repeat":true,"skippable":false,"wait":false},"moveSpeed":3,"moveType":0,"priorityType":1,"stepAnime":true,"through":false,"trigger":0,"walkAnime":false}],"x":4,"y":12},
{"id":6,"name":"EV006","note":"","pages":[{"conditions":{"actorId":1,"actorValid":false,"itemId":1,"itemValid":false,"selfSwitchCh":"A","selfSwitchValid":false,"switch1Id":1,"switch1Valid":false,"switch2Id":1,"switch2Valid":false,"variableId":1,"variableValid":false,"variableValue":0},"directionFix":false,"image":{"tileId":0,"characterName":"!Flame","direction":2,"pattern":0,"characterIndex":0},"list":[{"code":0,"indent":0,"parameters":[]}],"moveFrequency":3,"moveRoute":{"list":[{"code":0,"parameters":[]}],"repeat":true,"skippable":false,"wait":false},"moveSpeed":3,"moveType":0,"priorityType":1,"stepAnime":true,"through":false,"trigger":0,"walkAnime":false}],"x":3,"y":21},
{"id":7,"name":"EV007","note":"","pages":[{"conditions":{"actorId":1,"actorValid":false,"itemId":1,"itemValid":false,"selfSwitchCh":"A","selfSwitchValid":false,"switch1Id":1,"switch1Valid":false,"switch2Id":1,"switch2Valid":false,"variableId":1,"variableValid":false,"variableValue":0},"directionFix":false,"image":{"tileId":0,"characterName":"!Flame","direction":2,"pattern":0,"characterIndex":0},"list":[{"code":0,"indent":0,"parameters":[]}],"moveFrequency":3,"moveRoute":{"list":[{"code":0,"parameters":[]}],"repeat":true,"skippable":false,"wait":false},"moveSpeed":3,"moveType":0,"priorityType":1,"stepAnime":true,"through":false,"trigger":0,"walkAnime":false}],"x":5,"y":21},
{"id":8,"name":"EV008","note":"","pages":[{"conditions":{"actorId":1,"actorValid":false,"itemId":1,"itemValid":false,"selfSwitchCh":"A","selfSwitchValid":false,"switch1Id":1,"switch1Valid":false,"switch2Id":1,"switch2Valid":false,"variableId":1,"variableValid":false,"variableValue":0},"directionFix":false,"image":{"tileId":0,"characterName":"!Flame","direction":2,"pattern":0,"characterIndex":0},"list":[{"code":0,"indent":0,"parameters":[]}],"moveFrequency":3,"moveRoute":{"list":[{"code":0,"parameters":[]}],"repeat":true,"skippable":false,"wait":false},"moveSpeed":3,"moveType":0,"priorityType":1,"stepAnime":true,"through":false,"trigger":0,"walkAnime":false}],"x":7,"y":21},
{"id":9,"name":"EV009","note":"","pages":[{"conditions":{"actorId":1,"actorValid":false,"itemId":1,"itemValid":false,"selfSwitchCh":"A","selfSwitchValid":false,"switch1Id":1,"switch1Valid":false,"switch2Id":1,"switch2Valid":false,"variableId":1,"variableValid":false,"variableValue":0},"directionFix":false,"image":{"tileId":0,"characterName":"!Flame","direction":2,"pattern":0,"characterIndex":0},"list":[{"code":0,"indent":0,"parameters":[]}],"moveFrequency":3,"moveRoute":{"list":[{"code":0,"parameters":[]}],"repeat":true,"skippable":false,"wait":false},"moveSpeed":3,"moveType":0,"priorityType":1,"stepAnime":true,"through":false,"trigger":0,"walkAnime":false}],"x":21,"y":21},
{"id":10,"name":"EV010","note":"","pages":[{"conditions":{"actorId":1,"actorValid":false,"itemId":1,"itemValid":false,"selfSwitchCh":"A","selfSwitchValid":false,"switch1Id":1,"switch1Valid":false,"switch2Id":1,"switch2Valid":false,"variableId":1,"variableValid":false,"variableValue":0},"directionFix":false,"image":{"tileId":0,"characterName":"!Flame","direction":2,"pattern":0,"characterIndex":0},"list":[{"code":0,"indent":0,"parameters":[]}],"moveFrequency":3,"moveRoute":{"list":[{"code":0,"parameters":[]}],"repeat":true,"skippable":false,"wait":false},"moveSpeed":3,"moveType":0,"priorityType":1,"stepAnime":true,"through":false,"trigger":0,"walkAnime":false}],"x":19,"y":21},
{"id":11,"name":"EV011","note":"","pages":[{"conditions":{"actorId":1,"actorValid":false,"itemId":1,"itemValid":false,"selfSwitchCh":"A","selfSwitchValid":false,"switch1Id":1,"switch1Valid":false,"switch2Id":1,"switch2Valid":false,"variableId":1,"variableValid":false,"variableValue":0},"directionFix":false,"image":{"tileId":0,"characterName":"!Flame","direction":2,"pattern":0,"characterIndex":0},"list":[{"code":0,"indent":0,"parameters":[]}],"moveFrequency":3,"moveRoute":{"list":[{"code":0,"parameters":[]}],"repeat":true,"skippable":false,"wait":false},"moveSpeed":3,"moveType":0,"priorityType":1,"stepAnime":true,"through":false,"trigger":0,"walkAnime":false}],"x":17,"y":21},
{"id":12,"name":"EV012","note":"","pages":[{"conditions":{"actorId":1,"actorValid":false,"itemId":1,"itemValid":false,"selfSwitchCh":"A","selfSwitchValid":false,"switch1Id":1,"switch1Valid":false,"switch2Id":1,"switch2Valid":false,"variableId":1,"variableValid":false,"variableValue":0},"directionFix":false,"image":{"tileId":0,"characterName":"!Other2","direction":2,"pattern":0,"characterIndex":7},"list":[{"code":0,"indent":0,"parameters":[]}],"moveFrequency":3,"moveRoute":{"list":[{"code":0,"parameters":[]}],"repeat":true,"skippable":false,"wait":false},"moveSpeed":3,"moveType":0,"priorityType":1,"stepAnime":true,"through":false,"trigger":0,"walkAnime":false}],"x":14,"y":28},
{"id":13,"name":"EV013","note":"","pages":[{"conditions":{"actorId":1,"actorValid":false,"itemId":1,"itemValid":false,"selfSwitchCh":"A","selfSwitchValid":false,"switch1Id":1,"switch1Valid":false,"switch2Id":1,"switch2Valid":false,"variableId":1,"variableValid":false,"variableValue":0},"directionFix":false,"image":{"tileId":0,"characterName":"!Other2","direction":2,"pattern":0,"characterIndex":7},"list":[{"code":0,"indent":0,"parameters":[]}],"moveFrequency":3,"moveRoute":{"list":[{"code":0,"parameters":[]}],"repeat":true,"skippable":false,"wait":false},"moveSpeed":3,"moveType":0,"priorityType":1,"stepAnime":true,"through":false,"trigger":0,"walkAnime":false}],"x":14,"y":30},
{"id":14,"name":"EV014","note":"","pages":[{"conditions":{"actorId":1,"actorValid":false,"itemId":1,"itemValid":false,"selfSwitchCh":"A","selfSwitchValid":false,"switch1Id":1,"switch1Valid":false,"switch2Id":1,"switch2Valid":false,"variableId":1,"variableValid":false,"variableValue":0},"directionFix":false,"image":{"tileId":0,"characterName":"!Other2","direction":2,"pattern":0,"characterIndex":7},"list":[{"code":0,"indent":0,"parameters":[]}],"moveFrequency":3,"moveRoute":{"list":[{"code":0,"parameters":[]}],"repeat":true,"skippable":false,"wait":false},"moveSpeed":3,"moveType":0,"priorityType":1,"stepAnime":true,"through":false,"trigger":0,"walkAnime":false}],"x":10,"y":28},
{"id":15,"name":"EV015","note":"","pages":[{"conditions":{"actorId":1,"actorValid":false,"itemId":1,"itemValid":false,"selfSwitchCh":"A","selfSwitchValid":false,"switch1Id":1,"switch1Valid":false,"switch2Id":1,"switch2Valid":false,"variableId":1,"variableValid":false,"variableValue":0},"directionFix":false,"image":{"tileId":0,"characterName":"!Other2","direction":2,"pattern":0,"characterIndex":7},"list":[{"code":0,"indent":0,"parameters":[]}],"moveFrequency":3,"moveRoute":{"list":[{"code":0,"parameters":[]}],"repeat":true,"skippable":false,"wait":false},"moveSpeed":3,"moveType":0,"priorityType":1,"stepAnime":true,"through":false,"trigger":0,"walkAnime":false}],"x":10,"y":30},
{"id":16,"name":"EV016","note":"","pages":[{"conditions":{"actorId":1,"actorValid":false,"itemId":1,"itemValid":false,"selfSwitchCh":"A","selfSwitchValid":false,"switch1Id":1,"switch1Valid":false,"switch2Id":1,"switch2Valid":false,"variableId":1,"variableValid":false,"variableValue":0},"directionFix":false,"image":{"tileId":0,"characterName":"!Other2","direction":2,"pattern":0,"characterIndex":7},"list":[{"code":0,"indent":0,"parameters":[]}],"moveFrequency":3,"moveRoute":{"list":[{"code":0,"parameters":[]}],"repeat":true,"skippable":false,"wait":false},"moveSpeed":3,"moveType":0,"priorityType":1,"stepAnime":true,"through":false,"trigger":0,"walkAnime":false}],"x":10,"y":32},
{"id":17,"name":"EV017","note":"","pages":[{"conditions":{"actorId":1,"actorValid":false,"itemId":1,"itemValid":false,"selfSwitchCh":"A","selfSwitchValid":false,"switch1Id":1,"switch1Valid":false,"switch2Id":1,"switch2Valid":false,"variableId":1,"variableValid":false,"variableValue":0},"directionFix":false,"image":{"tileId":0,"characterName":"!Other2","direction":2,"pattern":0,"characterIndex":7},"list":[{"code":0,"indent":0,"parameters":[]}],"moveFrequency":3,"moveRoute":{"list":[{"code":0,"parameters":[]}],"repeat":true,"skippable":false,"wait":false},"moveSpeed":3,"moveType":0,"priorityType":1,"stepAnime":true,"through":false,"trigger":0,"walkAnime":false}],"x":14,"y":32},
{"id":18,"name":"Officer","note":"","pages":[{"conditions":{"actorId":1,"actorValid":false,"itemId":1,"itemValid":false,"selfSwitchCh":"A","selfSwitchValid":false,"switch1Id":1,"switch1Valid":false,"switch2Id":1,"switch2Valid":false,"variableId":1,"variableValid":false,"variableValue":0},"directionFix":false,"image":{"tileId":0,"characterName":"People4","direction":6,"pattern":1,"characterIndex":7},"list":[{"code":101,"indent":0,"parameters":["People4",7,0,2,"Lily"]},{"code":401,"indent":0,"parameters":["{Map028.EV018.page0.[0]}"]},{"code":0,"indent":0,"parameters":[]}],"moveFrequency":3,"moveRoute":{"list":[{"code":0,"parameters":[]}],"repeat":true,"skippable":false,"wait":false},"moveSpeed":3,"moveType":0,"priorityType":1,"stepAnime":false,"through":false,"trigger":0,"walkAnime":true}],"x":16,"y":12},
{"id":19,"name":"Initial","note":"","pages":[{"conditions":{"actorId":1,"actorValid":false,"itemId":1,"itemValid":false,"selfSwitchCh":"A","selfSwitchValid":false,"switch1Id":1,"switch1Valid":false,"switch2Id":1,"switch2Valid":false,"variableId":1,"variableValid":false,"variableValue":0},"directionFix":false,"image":{"characterIndex":0,"characterName":"","direction":2,"pattern":0,"tileId":0},"list":[{"code":241,"indent":0,"parameters":[{"name":"MZre_Town1","volume":90,"pitch":100,"pan":0}]},{"code":230,"indent":0,"parameters":[60]},{"code":101,"indent":0,"parameters":["People4",7,0,2,""]},{"code":401,"indent":0,"parameters":["{Map028.EV019.page0.[0]}"]},{"code":101,"indent":0,"parameters":["",0,0,2,"{actors[5].name}"]},{"code":401,"indent":0,"parameters":["{Map028.EV019.page0.[1]}"]},{"code":230,"indent":0,"parameters":[60]},{"code":101,"indent":0,"parameters":["People4",7,0,2,"Lily"]},{"code":401,"indent":0,"parameters":["{Map028.EV019.page0.[2]}"]},{"code":101,"indent":0,"parameters":["People4",7,0,2,"Lily"]},{"code":401,"indent":0,"parameters":["{Map028.EV019.page0.[3]}"]},{"code":101,"indent":0,"parameters":["People4",7,0,2,"Lily"]},{"code":401,"indent":0,"parameters":["{Map028.EV019.page0.[4]}"]},{"code":230,"indent":0,"parameters":[60]},{"code":101,"indent":0,"parameters":["",0,0,2,"{actors[5].name}"]},{"code":401,"indent":0,"parameters":["{Map028.EV019.page0.[5]}"]},{"code":101,"indent":0,"parameters":["People4",7,0,2,"Lily"]},{"code":401,"indent":0,"parameters":["{Map028.EV019.page0.[6]}"]},{"code":401,"indent":0,"parameters":["{Map028.EV019.page0.[7]}"]},{"code":101,"indent":0,"parameters":["People4",7,0,2,"Lily"]},{"code":401,"indent":0,"parameters":["{Map028.EV019.page0.[8]}"]},{"code":101,"indent":0,"parameters":["",0,0,2,"{actors[5].name}"]},{"code":401,"indent":0,"parameters":["{Map028.EV019.page0.[9]}"]},{"code":101,"indent":0,"parameters":["",0,0,2,"{actors[5].name}"]},{"code":401,"indent":0,"parameters":["{Map028.EV019.page0.[10]}"]},{"code":101,"indent":0,"parameters":["People4",7,0,2,"Lily"]},{"code":401,"indent":0,"parameters":["{Map028.EV019.page0.[11]}"]},{"code":230,"indent":0,"parameters":[60]},{"code":101,"indent":0,"parameters":["",0,0,2,"{actors[5].name}"]},{"code":401,"indent":0,"parameters":["{Map028.EV019.page0.[12]}"]},{"code":101,"indent":0,"parameters":["People4",7,0,2,"Lily"]},{"code":401,"indent":0,"parameters":["{Map028.EV019.page0.[13]}"]},{"code":401,"indent":0,"parameters":["{Map028.EV019.page0.[14]}"]},{"code":101,"indent":0,"parameters":["People4",7,0,2,"Lily"]},{"code":401,"indent":0,"parameters":["{Map028.EV019.page0.[15]}"]},{"code":101,"indent":0,"parameters":["",0,0,2,"{actors[5].name}"]},{"code":401,"indent":0,"parameters":["{Map028.EV019.page0.[16]}"]},{"code":401,"indent":0,"parameters":["{Map028.EV019.page0.[17]}"]},{"code":101,"indent":0,"parameters":["",0,0,2,"{actors[5].name}"]},{"code":401,"indent":0,"parameters":["{Map028.EV019.page0.[18]}"]},{"code":401,"indent":0,"parameters":["{Map028.EV019.page0.[19]}"]},{"code":101,"indent":0,"parameters":["People4",7,0,2,"Lily"]},{"code":401,"indent":0,"parameters":["{Map028.EV019.page0.[20]}"]},{"code":401,"indent":0,"parameters":["{Map028.EV019.page0.[21]}"]},{"code":401,"indent":0,"parameters":["{Map028.EV019.page0.[22]}"]},{"code":101,"indent":0,"parameters":["",0,0,2,"{actors[5].name}"]},{"code":401,"indent":0,"parameters":["{Map028.EV019.page0.[23]}"]},{"code":230,"indent":0,"parameters":[60]},{"code":101,"indent":0,"parameters":["People4",7,0,2,"Lily"]},{"code":401,"indent":0,"parameters":["{Map028.EV019.page0.[24]}"]},{"code":101,"indent":0,"parameters":["",0,0,2,"{actors[5].name}"]},{"code":401,"indent":0,"parameters":["{Map028.EV019.page0.[25]}"]},{"code":101,"indent":0,"parameters":["People4",7,0,2,"Lily"]},{"code":401,"indent":0,"parameters":["{Map028.EV019.page0.[26]}"]},{"code":101,"indent":0,"parameters":["People4",7,0,2,"Lily"]},{"code":401,"indent":0,"parameters":["{Map028.EV019.page0.[27]}"]},{"code":101,"indent":0,"parameters":["",0,0,2,"{actors[5].name}"]},{"code":401,"indent":0,"parameters":["{Map028.EV019.page0.[28]}"]},{"code":101,"indent":0,"parameters":["People4",7,0,2,"Lily"]},{"code":401,"indent":0,"parameters":["{Map028.EV019.page0.[29]}"]},{"code":205,"indent":0,"parameters":[18,{"list":[{"code":16,"indent":null},{"code":0}],"repeat":false,"skippable":false,"wait":true}]},{"code":505,"indent":0,"parameters":[{"code":16,"indent":null}]},{"code":123,"indent":0,"parameters":["A",0]},{"code":0,"indent":0,"parameters":[]}],"moveFrequency":3,"moveRoute":{"list":[{"code":0,"parameters":[]}],"repeat":true,"skippable":false,"wait":false},"moveSpeed":3,"moveType":0,"priorityType":0,"stepAnime":false,"through":false,"trigger":3,"walkAnime":true},{"conditions":{"actorId":1,"actorValid":false,"itemId":1,"itemValid":false,"selfSwitchCh":"A","selfSwitchValid":true,"switch1Id":1,"switch1Valid":false,"switch2Id":1,"switch2Valid":false,"variableId":1,"variableValid":false,"variableValue":0},"directionFix":false,"image":{"characterIndex":0,"characterName":"","direction":2,"pattern":0,"tileId":0},"list":[{"code":0,"indent":0,"parameters":[]}],"moveFrequency":3,"moveRoute":{"list":[{"code":0,"parameters":[]}],"repeat":true,"skippable":false,"wait":false},"moveSpeed":3,"moveType":0,"priorityType":0,"stepAnime":false,"through":false,"trigger":0,"walkAnime":true}],"x":0,"y":0},
{"id":20,"name":"EV020","note":"","pages":[{"conditions":{"actorId":1,"actorValid":false,"itemId":1,"itemValid":false,"selfSwitchCh":"A","selfSwitchValid":false,"switch1Id":1,"switch1Valid":false,"switch2Id":1,"switch2Valid":false,"variableId":1,"variableValid":false,"variableValue":0},"directionFix":false,"image":{"characterIndex":0,"characterName":"","direction":2,"pattern":0,"tileId":0},"list":[{"code":117,"indent":0,"parameters":[37]},{"code":123,"indent":0,"parameters":["A",0]},{"code":0,"indent":0,"parameters":[]}],"moveFrequency":3,"moveRoute":{"list":[{"code":0,"parameters":[]}],"repeat":true,"skippable":false,"wait":false},"moveSpeed":3,"moveType":0,"priorityType":0,"stepAnime":false,"through":false,"trigger":1,"walkAnime":true},{"conditions":{"actorId":1,"actorValid":false,"itemId":1,"itemValid":false,"selfSwitchCh":"A","selfSwitchValid":true,"switch1Id":1,"switch1Valid":false,"switch2Id":1,"switch2Valid":false,"variableId":1,"variableValid":false,"variableValue":0},"directionFix":false,"image":{"characterIndex":0,"characterName":"","direction":2,"pattern":0,"tileId":0},"list":[{"code":0,"indent":0,"parameters":[]}],"moveFrequency":3,"moveRoute":{"list":[{"code":0,"parameters":[]}],"repeat":true,"skippable":false,"wait":false},"moveSpeed":3,"moveType":0,"priorityType":0,"stepAnime":false,"through":false,"trigger":0,"walkAnime":true}],"x":12,"y":26},
{"id":21,"name":"EV021","note":"","pages":[{"conditions":{"actorId":1,"actorValid":false,"itemId":1,"itemValid":false,"selfSwitchCh":"A","selfSwitchValid":false,"switch1Id":1,"switch1Valid":false,"switch2Id":1,"switch2Valid":false,"variableId":1,"variableValid":false,"variableValue":0},"directionFix":false,"image":{"characterIndex":0,"characterName":"","direction":2,"pattern":0,"tileId":0},"list":[{"code":117,"indent":0,"parameters":[37]},{"code":123,"indent":0,"parameters":["A",0]},{"code":0,"indent":0,"parameters":[]}],"moveFrequency":3,"moveRoute":{"list":[{"code":0,"parameters":[]}],"repeat":true,"skippable":false,"wait":false},"moveSpeed":3,"moveType":0,"priorityType":0,"stepAnime":false,"through":false,"trigger":1,"walkAnime":true},{"conditions":{"actorId":1,"actorValid":false,"itemId":1,"itemValid":false,"selfSwitchCh":"A","selfSwitchValid":true,"switch1Id":1,"switch1Valid":false,"switch2Id":1,"switch2Valid":false,"variableId":1,"variableValid":false,"variableValue":0},"directionFix":false,"image":{"characterIndex":0,"characterName":"","direction":2,"pattern":0,"tileId":0},"list":[{"code":0,"indent":0,"parameters":[]}],"moveFrequency":3,"moveRoute":{"list":[{"code":0,"parameters":[]}],"repeat":true,"skippable":false,"wait":false},"moveSpeed":3,"moveType":0,"priorityType":0,"stepAnime":false,"through":false,"trigger":0,"walkAnime":true}],"x":11,"y":26},
{"id":22,"name":"EV022","note":"","pages":[{"conditions":{"actorId":1,"actorValid":false,"itemId":1,"itemValid":false,"selfSwitchCh":"A","selfSwitchValid":false,"switch1Id":1,"switch1Valid":false,"switch2Id":1,"switch2Valid":false,"variableId":1,"variableValid":false,"variableValue":0},"directionFix":false,"image":{"characterIndex":0,"characterName":"","direction":2,"pattern":0,"tileId":0},"list":[{"code":117,"indent":0,"parameters":[37]},{"code":123,"indent":0,"parameters":["A",0]},{"code":0,"indent":0,"parameters":[]}],"moveFrequency":3,"moveRoute":{"list":[{"code":0,"parameters":[]}],"repeat":true,"skippable":false,"wait":false},"moveSpeed":3,"moveType":0,"priorityType":0,"stepAnime":false,"through":false,"trigger":1,"walkAnime":true},{"conditions":{"actorId":1,"actorValid":false,"itemId":1,"itemValid":false,"selfSwitchCh":"A","selfSwitchValid":true,"switch1Id":1,"switch1Valid":false,"switch2Id":1,"switch2Valid":false,"variableId":1,"variableValid":false,"variableValue":0},"directionFix":false,"image":{"characterIndex":0,"characterName":"","direction":2,"pattern":0,"tileId":0},"list":[{"code":0,"indent":0,"parameters":[]}],"moveFrequency":3,"moveRoute":{"list":[{"code":0,"parameters":[]}],"repeat":true,"skippable":false,"wait":false},"moveSpeed":3,"moveType":0,"priorityType":0,"stepAnime":false,"through":false,"trigger":0,"walkAnime":true}],"x":13,"y":26}
]
}